Division,WeightClassKg,Place,Name,Team,BodyweightKg,Best3SquatKg,Best3BenchKg,Best3DeadliftKg,TotalKg,Equipment,Event,Sex
Boys,55.79,1,Jacob Gay,Weatherford,51.89,88.45,52.16,102.06,242.67,Single-ply,SBD,M
Boys,51.71,2,Dale Gallegos,Fort Worth Boswell,48.53,81.65,56.7,92.99,231.33,Single-ply,SBD,M
Boys,51.71,3,Braden Martin,Fort Worth Boswell,47.17,70.31,34.02,97.52,201.85,Single-ply,SBD,M
Boys,55.79,1,Orlando Martinez,Fort Worth Boswell,55.25,120.2,58.97,106.59,285.76,Single-ply,SBD,M
Boys,67.13,1,Ian Astorga,Keller Central,60.1,140.61,79.38,158.76,378.75,Single-ply,SBD,M
Boys,67.13,2,Dallas Delmere,Fort Worth Boswell,59.96,140.61,72.57,149.69,362.87,Single-ply,SBD,M
Boys,59.87,3,Giancarlo Gonzalez,Saginaw,58.6,124.74,65.77,136.08,326.59,Single-ply,SBD,M
Boys,67.13,1,Tyler Barnett,Keller Central,63.96,204.12,106.59,172.37,483.08,Single-ply,SBD,M
Boys,67.13,2,Jake Bartels,Weatherford,66.63,190.51,95.25,174.63,460.4,Single-ply,SBD,M
Boys,67.13,3,Austin Van Houtan,Weatherford,66.72,161.03,102.06,163.29,426.38,Single-ply,SBD,M
Boys,67.13,4,Bryan Bonnette,Weatherford,65.77,147.42,99.79,156.49,403.7,Single-ply,SBD,M
Boys,74.84,5,Dustin Martinez,Fort Worth Boswell,67.31,138.35,97.52,142.88,378.75,Single-ply,SBD,M
Boys,67.13,6,Nick Oubre,Keller Central,63.96,151.95,68.04,136.08,356.07,Single-ply,SBD,M
Boys,67.13,7,Billy Williams,Fort Worth Boswell,63.41,136.08,61.23,154.22,351.53,Single-ply,SBD,M
Boys,67.13,DQ,Domicque Downs,Fort Worth Boswell,64.86,120.2,83.91,,,Single-ply,SBD,M
Boys,67.13,DQ,Josh Harris,Saginaw,65.77,113.4,,,,Single-ply,SBD,M
Boys,67.13,DQ,Austin Livingston,Weatherford,67,,86.18,,,Single-ply,SBD,M
Boys,74.84,1,Robert Ard,Weatherford,73.62,174.63,120.2,188.24,483.08,Single-ply,SBD,M
Boys,74.84,2,Ryan Wood,Fort Worth Boswell,71.49,163.29,108.86,199.58,471.74,Single-ply,SBD,M
Boys,74.84,3,Juan Diaz,Saginaw,67.95,163.29,102.06,158.76,424.11,Single-ply,SBD,M
Boys,74.84,4,Russell Abrams,Saginaw,73.48,170.1,95.25,158.76,424.11,Single-ply,SBD,M
Boys,74.84,5,Lewis Blackwell,Saginaw,70.49,170.1,88.45,138.35,396.89,Single-ply,SBD,M
Boys,74.84,6,Kurt Rowe,Keller Central,69.17,149.69,90.72,154.22,394.63,Single-ply,SBD,M
Boys,74.84,7,Anthony Sanchez,Fort Worth Boswell,74.39,142.88,97.52,142.88,383.29,Single-ply,SBD,M
Boys,74.84,8,Zach Watts,Fort Worth Boswell,71.21,149.69,68.04,156.49,374.21,Single-ply,SBD,M
Boys,74.84,9,Blake Ritenour,Keller Central,68.95,140.61,90.72,138.35,369.68,Single-ply,SBD,M
Boys,74.84,10,Kade Suratt,Keller Central,71.21,120.2,70.31,149.69,340.19,Single-ply,SBD,M
Boys,74.84,11,Landon Whitsel,Keller Central,74.84,117.93,63.5,136.08,317.51,Single-ply,SBD,M
Boys,74.84,12,Cason Barry,Fort Worth Boswell,73.03,151.95,72.57,,224.53,Single-ply,SB,M
Boys,82.1,1,Manny Rodriguez,Saginaw,80.56,192.78,120.2,219.99,532.97,Single-ply,SBD,M
Boys,82.1,2,Cj Kirk,Keller Central,81.65,197.31,131.54,188.24,517.1,Single-ply,SBD,M
Boys,82.1,3,Dustin Donaldson,Weatherford,77.7,204.12,113.4,197.31,514.83,Single-ply,SBD,M
Boys,82.1,4,Clayton Hensley,Weatherford,82.1,170.1,111.13,185.97,467.2,Single-ply,SBD,M
Boys,82.1,5,Drake Seymour,Fort Worth Boswell,81.74,158.76,113.4,185.97,458.13,Single-ply,SBD,M
Boys,82.1,6,Dominique Allen,Fort Worth Boswell,75.84,151.95,83.91,185.97,421.84,Single-ply,SBD,M
Boys,82.1,7,Keith Cox,Saginaw,80.51,124.74,88.45,151.95,365.14,Single-ply,SBD,M
Boys,89.81,8,Jason Washington,Weatherford,82.19,120.2,72.57,136.08,328.85,Single-ply,SBD,M
Boys,82.1,9,Cade Lancaster,Fort Worth Boswell,75.75,113.4,68.04,145.15,326.59,Single-ply,SBD,M
Boys,82.1,10,Matthew Garner,Weatherford,77.2,124.74,65.77,136.08,326.59,Single-ply,SBD,M
Boys,89.81,1,Tyler Reynolds,Weatherford,88.09,215.46,127.01,217.72,560.19,Single-ply,SBD,M
Boys,89.81,2,Russell Murphy,Saginaw,88.45,210.92,129.27,192.78,532.97,Single-ply,SBD,M
Boys,89.81,3,Michael Garner,Weatherford,84.05,192.78,104.33,197.31,494.42,Single-ply,SBD,M
Boys,89.81,4,Matt Mullins,Keller Central,88.9,165.56,127.01,199.58,492.15,Single-ply,SBD,M
Boys,89.81,5,Kody Cluck,Fort Worth Boswell,88.99,174.63,108.86,192.78,476.27,Single-ply,SBD,M
Boys,89.81,6,Tyler Jenkins,Weatherford,88.45,158.76,113.4,195.04,467.2,Single-ply,SBD,M
Boys,89.81,7,Daniel Ramirez #8,Fort Worth Boswell,84.37,172.37,99.79,142.88,415.04,Single-ply,SBD,M
Boys,89.81,8,Stephen August,Fort Worth Boswell,89.18,154.22,72.57,165.56,392.36,Single-ply,SBD,M
Boys,89.81,9,Levi Miller,Weatherford,82.92,117.93,52.16,108.86,278.96,Single-ply,SBD,M
Boys,99.79,1,Garrett Hamilton,Fort Worth Boswell,97.61,199.58,117.93,170.1,487.61,Single-ply,SBD,M
Boys,109.77,2,Kelvin McSwain,Saginaw,99.93,192.78,104.33,181.44,478.54,Single-ply,SBD,M
Boys,99.79,3,Kent Sanner,Weatherford,99.02,170.1,108.86,181.44,460.4,Single-ply,SBD,M
Boys,99.79,4,Bobby Subert,Saginaw,95.71,181.44,104.33,163.29,449.06,Single-ply,SBD,M
Boys,99.79,5,Josh Finholt,Weatherford,95.75,161.03,104.33,183.7,449.06,Single-ply,SBD,M
Boys,99.79,6,Austin Cutting,Keller Central,92.08,158.76,90.72,183.7,433.18,Single-ply,SBD,M
Boys,99.79,7,Gary Foster,Keller Central,97.52,154.22,106.59,149.69,410.5,Single-ply,SBD,M
Boys,99.79,DQ,Zach Harriman,Weatherford,96.16,192.78,,174.63,,Single-ply,SBD,M
Boys,109.77,1,John Tow,Weatherford,108.23,195.04,145.15,208.65,548.85,Single-ply,SBD,M
Boys,109.77,2,Daniel Hoystradt,Saginaw,100.61,204.12,113.4,215.46,532.97,Single-ply,SBD,M
Boys,109.77,3,Hayden Davis,Weatherford,105.91,190.51,117.93,172.37,480.81,Single-ply,SBD,M
Boys,124.74,1,Nathan Runs Through,Fort Worth Boswell,116.3,176.9,97.52,174.63,449.06,Single-ply,SBD,M
Boys,124.74,DQ,Bryan McGraw,Keller Central,124.28,,,,,Single-ply,SBD,M
Boys,124.74+,1,Justin Soria,Saginaw,125.65,215.46,133.81,188.24,537.51,Single-ply,SBD,M
Boys,124.74+,2,Josh Moranski,Keller Central,125.42,188.24,108.86,204.12,501.22,Single-ply,SBD,M
Boys,124.74+,3,Ld Douglas,Fort Worth Boswell,171.91,208.65,95.25,181.44,485.34,Single-ply,SBD,M
Boys,124.74+,4,Colton Sanders,Weatherford,127.01,147.42,113.4,140.61,401.43,Single-ply,SBD,M
