Place,Name,Sex,Event,Division,WeightClassKg,Equipment,BirthYear,State,BodyweightKg,Squat1Kg,Squat2Kg,Squat3Kg,Best3SquatKg,Bench1Kg,Bench2Kg,Bench3Kg,Best3BenchKg,Deadlift1Kg,Deadlift2Kg,Deadlift3Kg,Best3DeadliftKg,TotalKg,Age,BirthDate
1,Isabel Olivarez,F,B,F-T1,63,Single-ply,2005,TX,62.5,,,,,75,80,87.5,87.5,,,,,87.5,,
1,Michael McQueen,M,B,MR-M1b,93,Raw,1971,TX,92.6,,,,,165,170,-175,170,,,,,170,,
1,Jorge Castaneda,M,B,MR-M2a,120,Raw,1970,TX,117,,,,,-205,205,-215,205,,,,,205,,
1,Dennis Alba,M,B,MR-M2b,83,Raw,1961,TX,77.4,,,,,-142.5,142.5,152.5,152.5,,,,,152.5,,
1,Bryan McCasland,M,B,MR-O,93,Raw,1986,TX,93,,,,,160,165,167.5,167.5,,,,,167.5,,
2,Qingyang Peng,M,B,MR-O,93,Raw,1992,TX,92.3,,,,,142.5,-147.5,-147.5,142.5,,,,,142.5,,
1,Michael Tyler #1,M,B,MR-O,105,Raw,1989,TX,101.8,,,,,167.5,172.5,-177.5,172.5,,,,,172.5,,
1,Marcus Lindley,M,B,MR-O,120+,Raw,2001,KS,180.5,,,,,-200,210,-215,210,,,,,210,,
1,Abagail Stanfield,F,SBD,F-Jr,84,Single-ply,1998,TX,83.6,-155,155,-167.5,155,-72.5,72.5,-92.5,72.5,135,145,-155,145,372.5,,
1,Mireya Fernandez,F,SBD,FR-Jr,43,Raw,1998,TX,42.5,82.5,90,-92.5,90,45,-50,-50,45,105,112.5,-117.5,112.5,247.5,,
1,Jennifer Lopez,F,SBD,FR-Jr,52,Raw,1998,TX,51.2,-92.5,-92.5,92.5,92.5,40,45,-52.5,45,110,120,-127.5,120,257.5,,
1,Jennifer Galdamez,F,SBD,FR-Jr,57,Raw,1997,TX,54,125,-140,140,140,50,52.5,55,55,157.5,170,175,175,370,,1997-05-21
1,Monica Williams,F,SBD,FR-Jr,63,Raw,1997,TX,60.5,85,92.5,97.5,97.5,42.5,45,-50,45,97.5,105,112.5,112.5,255,,
1,Rachel Barnes,F,SBD,FR-Jr,72,Raw,1998,FL,69.8,90,95,102.5,102.5,50,-57.5,57.5,57.5,105,112.5,120,120,280,,
1,Zena Esquivel,F,SBD,FR-Jr,84,Raw,1997,TX,83.4,132.5,140,145,145,80,87.5,-92.5,87.5,-155,160,165,165,397.5,,
1,Lisa Benavides,F,SBD,FR-M1b,84,Raw,1972,TX,83.9,132.5,137.5,140,140,90,-97.5,-97.5,90,167.5,175,180,180,410,,
DQ,Nancy Flynn,F,SBD,FR-M3b,72,Raw,1953,TX,70.9,45,-47.5,-52.5,45,-45,-45,-45,,80,85,-90,85,,,
1,Victoria Martinez #1,F,SBD,FR-O,57,Raw,1994,TX,53.4,127.5,137.5,-147.5,137.5,77.5,82.5,-85,82.5,145,155,-160,155,375,,
2,Becky Lamando,F,SBD,FR-O,57,Raw,1983,TX,55.8,85,95,97.5,97.5,42.5,50,-52.5,50,102.5,112.5,115,115,262.5,,
1,Jenna Mayle,F,SBD,FR-O,63,Raw,1991,TX,62.4,95,-105,-107.5,95,67.5,72.5,-75,72.5,130,140,-145,140,307.5,,
2,Emilie Sallee,F,SBD,FR-O,63,Raw,1991,TX,60.3,97.5,105,110,110,50,-57.5,-57.5,50,102.5,105,112.5,112.5,272.5,,
1,Alice Hardin,F,SBD,FR-O,72,Raw,1992,TX,68.5,117.5,127.5,-132.5,127.5,67.5,-72.5,-72.5,67.5,142.5,147.5,152.5,152.5,347.5,,
2,Sariya Rawaekklang,F,SBD,FR-O,72,Raw,1998,MO,70.9,117.5,125,135,135,57.5,60,67.5,67.5,132.5,142.5,-155,142.5,345,,
3,Marissa Novotny,F,SBD,FR-O,72,Raw,1987,FL,63.1,90,100,-105,100,-50,50,-55,50,100,107.5,112.5,112.5,262.5,,
1,Lisa Benavides,F,SBD,FR-O,84,Raw,1972,TX,83.9,132.5,137.5,140,140,90,-97.5,-97.5,90,167.5,175,180,180,410,,
2,Tessa Willis,F,SBD,FR-O,84,Raw,1996,TX,75.6,107.5,115,130,130,52.5,57.5,60,60,142.5,152.5,165,165,355,,
3,Megan Martin #1,F,SBD,FR-O,84,Raw,1985,TX,73.8,115,127.5,130,130,60,-70,-70,60,127.5,135,-142.5,135,325,,
4,Lynsie Maldonado,F,SBD,FR-O,84,Raw,1986,TX,76.5,92.5,97.5,102.5,102.5,62.5,-65,65,65,107.5,112.5,120,120,287.5,,
5,Fatima Ahsan,F,SBD,FR-O,84,Raw,1991,TX,77.1,-70,70,75,75,-30,-30,30,30,75,80,87.5,87.5,192.5,,
1,Jennifer Henriquez,F,SBD,FR-O,84+,Raw,1991,TX,88,92.5,102.5,110,110,45,52.5,-55,52.5,122.5,137.5,145,145,307.5,,
1,Myah Brown,F,SBD,FR-T1,63,Raw,2005,TX,61.4,100,110,112.5,112.5,45,52.5,55,55,105,115,120,120,287.5,,
1,Hailey Kopp,F,SBD,FR-T2,52,Raw,2002,TX,51.1,85,-90,90,90,47.5,-52.5,-52.5,47.5,92.5,-95,-95,92.5,230,,
1,Rachel Reyes,F,SBD,FR-T3,63,Raw,2001,TX,60.5,-75,77.5,85,85,40,-45,-45,40,90,-95,97.5,97.5,222.5,,
2,Alexis Paprzycki,F,SBD,FR-T3,63,Raw,2001,TX,59.2,-77.5,80,-82.5,80,32.5,35,-40,35,80,85,-90,85,200,,
DQ,Nicole Whiteford,F,SBD,FR-T3,84,Raw,2001,TX,78.3,-95,-95,-95,,52.5,-55,55,55,112.5,117.5,-122.5,117.5,,,
1,Rosita Driscoll,F,SBD,FR-Y3,57,Raw,2006,TX,55.1,-70,70,75,75,45,50,-52.5,50,82.5,90,95,95,220,,
1,Olivia Gholson,F,SBD,FR-Y3,84,Raw,2006,TX,80.9,102.5,110,120,120,42.5,50,52.5,52.5,115,127.5,137.5,137.5,310,,
1,Sabrina Espinoza,F,SBD,F-T3,47,Single-ply,2001,TX,45.6,100,-107.5,,100,45,60,65,65,107.5,115,120,120,285,,
1,Cara Garcia,F,SBD,F-T3,72,Single-ply,2001,TX,71.8,147.5,-152.5,-157.5,147.5,72.5,-77.5,77.5,77.5,125,132.5,140,140,365,,
1,Alexis Gallegos,F,SBD,F-T3,84,Single-ply,2000,TX,82.3,177.5,185,-190,185,62.5,-125,125,125,127.5,140,155,155,465,,
2,Mercedes Rodriguez,F,SBD,F-T3,84,Single-ply,2001,TX,75.9,167.5,-182.5,,167.5,62.5,-87.5,,62.5,152.5,162.5,175,175,405,,
3,Victoria Guerra,F,SBD,F-T3,84,Single-ply,2000,TX,76,-125,125,-147.5,125,-60,65,67.5,67.5,125,140,-147.5,140,332.5,,
1,Jazzmine Barrera,F,SBD,F-T3,84+,Single-ply,2001,TX,115,182.5,200,207.5,207.5,-100,100,-105,100,155,162.5,180,180,487.5,,
1,Jaylen Montgomery,M,SBD,M-Jr,66,Single-ply,1999,TX,64.7,175,190,-197.5,190,85,97.5,102.5,102.5,177.5,187.5,197.5,197.5,490,,
1,Fahad Khan,M,SBD,M-Jr,74,Single-ply,1998,TX,72.7,167.5,175,182.5,182.5,100,105,-110,105,197.5,207.5,-215,207.5,495,,
1,Cody Alvarado,M,SBD,M-Jr,120,Single-ply,2000,TX,107,-280,280,-290,280,192.5,-197.5,-197.5,192.5,252.5,265,-270,265,737.5,,
1,Alexis Lara #2,M,SBD,MR-Jr,59,Raw,1998,TX,58.8,110,-120,122.5,122.5,87.5,95,100,100,155,-170,170,170,392.5,,
2,Zach Wetherbee,M,SBD,MR-Jr,59,Raw,2000,TX,57.7,117.5,-125,127.5,127.5,-82.5,85,-92.5,85,147.5,155,162.5,162.5,375,,
1,Christopher Garcez,M,SBD,MR-Jr,66,Raw,1998,TX,65.5,152.5,160,-165,160,92.5,97.5,-100,97.5,162.5,170,-182.5,170,427.5,,
1,Minoza Minoza,M,SBD,MR-Jr,74,Raw,1998,TX,73.8,180,187.5,195,195,120,125,127.5,127.5,207.5,217.5,227.5,227.5,550,,
2,John Bush,M,SBD,MR-Jr,74,Raw,2000,TX,73.7,175,187.5,,187.5,-140,140,-142.5,140,202.5,212.5,220,220,547.5,,
3,Evan Rogers,M,SBD,MR-Jr,74,Raw,1998,TX,72.7,165,177.5,-187.5,177.5,115,120,-125,120,210,220,230,230,527.5,,
4,Ricardo Cuellar,M,SBD,MR-Jr,74,Raw,1999,TX,73.8,182.5,190,195,195,110,117.5,-130,117.5,185,187.5,192.5,192.5,505,,
5,Christopher Tran #4,M,SBD,MR-Jr,74,Raw,1998,TX,72.4,175,-180,-180,175,95,-100,-100,95,210,-220,-220,210,480,,
6,Roberto Riojas,M,SBD,MR-Jr,74,Raw,1996,TX,68.9,-112.5,115,122.5,122.5,80,85,-90,85,155,162.5,170,170,377.5,,
1,Phillip Wilson,M,SBD,MR-Jr,83,Raw,1998,TX,80.2,242.5,-250,-250,242.5,145,152.5,-157.5,152.5,-242.5,255,-270,255,650,,
2,Ryan Hollis,M,SBD,MR-Jr,83,Raw,1997,TX,80.2,180,190,202.5,202.5,102.5,110,-117.5,110,202.5,212.5,227.5,227.5,540,,
3,Eli Perez,M,SBD,MR-Jr,83,Raw,1999,TX,81.9,185,192.5,200,200,105,112.5,117.5,117.5,210,220,-227.5,220,537.5,,
4,Kyle Lovell,M,SBD,MR-Jr,83,Raw,1997,TX,82.6,145,-155,-155,145,107.5,-110,-110,107.5,-200,200,-215,200,452.5,,
1,Lee Gerth,M,SBD,MR-Jr,93,Raw,1997,TX,90.9,235,247.5,255,255,-145,-145,145,145,285,-290,,285,685,,
2,Harrison Caton,M,SBD,MR-Jr,93,Raw,1997,OK,88.7,215,225,235,235,160,172.5,-175,172.5,250,-265,-277.5,250,657.5,,
3,Andrew Hernandez #8,M,SBD,MR-Jr,93,Raw,1997,TX,83.2,195,-205,205,205,120,130,-137.5,130,220,227.5,-235,227.5,562.5,,
4,Jacob Polanco,M,SBD,MR-Jr,93,Raw,2000,TX,91.7,-185,-185,185,185,92.5,100,-105,100,185,190,200,200,485,,
1,Kevin Nguyen #16,M,SBD,MR-Jr,105,Raw,1999,TX,104.4,282.5,295,-310,295,180,190,-197.5,190,275,292.5,300,300,785,,
2,Hunter York,M,SBD,MR-Jr,105,Raw,1999,TX,103.9,185,,,185,125,135,-140,135,220,-225,225,225,545,,
3,Beau Russell,M,SBD,MR-Jr,105,Raw,1997,TX,103.8,150,157.5,165,165,115,122.5,125,125,165,175,182.5,182.5,472.5,,
DQ,Jared Gronhaug,M,SBD,MR-Jr,105,Raw,1998,FL,101.9,-175,-182.5,-182.5,,105,-112.5,,105,175,182.5,185,185,,,
1,Jose Moran,M,SBD,MR-Jr,120,Raw,1997,TX,118.3,250,265,272.5,272.5,150,-160,162.5,162.5,285,-300,-302.5,285,720,,
2,Hunter Tompkins,M,SBD,MR-Jr,120,Raw,1999,TX,119.6,210,-225,225,225,170,-182.5,182.5,182.5,240,250,-260,250,657.5,,
3,Jacob Lytle,M,SBD,MR-Jr,120,Raw,1997,IN,118.5,-197.5,197.5,-200,197.5,142.5,-147.5,-147.5,142.5,220,225,230,230,570,,
4,Joshua Ontiveros,M,SBD,MR-Jr,120,Raw,1998,TX,111.3,165,172.5,-182.5,172.5,102.5,110,115,115,215,237.5,250,250,537.5,,
5,Dawson Milner,M,SBD,MR-Jr,120,Raw,1999,TX,115.4,170,180,-192.5,180,115,120,-125,120,-180,185,-237.5,185,485,,
1,Fathi Mustafa,M,SBD,MR-Jr,120+,Raw,2000,TX,126.8,-230,230,250,250,142.5,150,-165,150,230,260,-275,260,660,,
2,Mark Bocanegra,M,SBD,MR-Jr,120+,Raw,1996,TX,122.5,227.5,250,267.5,267.5,142.5,155,-165,155,205,227.5,-237.5,227.5,650,,
1,Trey Harton,M,SBD,MR-M1a,74,Raw,1979,TX,73.4,167.5,175,182.5,182.5,147.5,155,-160,155,187.5,197.5,-202.5,197.5,535,,
2,Anthony Valdivia,M,SBD,MR-M1a,74,Raw,1977,TX,73.3,180,190,-202.5,190,112.5,117.5,122.5,122.5,200,212.5,220,220,532.5,,
1,Noe Barrera Sr,M,SBD,MR-M2a,120+,Raw,1966,TX,135.1,215,227.5,237.5,237.5,-110,-127.5,135,135,215,227.5,-237.5,227.5,600,,
1,David Barnes,M,SBD,MR-M4a,74,Raw,1948,TX,73.6,-97.5,97.5,107.5,107.5,97.5,102.5,-107.5,102.5,145,152.5,155,155,365,,
1,Aldo Salazar,M,SBD,MR-O,66,Raw,2000,TX,65,117.5,127.5,-135,127.5,72.5,80,85,85,127.5,137.5,-142.5,137.5,350,,
1,Evan Judice,M,SBD,MR-O,74,Raw,1992,TX,73.8,200,210,-220,210,145,155,160,160,235,255,-260,255,625,,
2,Brian Chen #1,M,SBD,MR-O,74,Raw,1998,TX,73,175,182.5,192.5,192.5,125,137.5,-142.5,137.5,217.5,222.5,227.5,227.5,557.5,,
3,Trey Harton,M,SBD,MR-O,74,Raw,1979,TX,73.4,167.5,175,182.5,182.5,147.5,155,-160,155,187.5,197.5,-202.5,197.5,535,,
4,Anthony Valdivia,M,SBD,MR-O,74,Raw,1977,TX,73.3,180,190,-202.5,190,112.5,117.5,122.5,122.5,200,212.5,220,220,532.5,,
5,Brian Hua,M,SBD,MR-O,74,Raw,1995,TX,73.6,167.5,175,180,180,97.5,102.5,107.5,107.5,185,200,215,215,502.5,,
6,Brandon Enriquez,M,SBD,MR-O,74,Raw,1995,TX,73.7,-165,165,175,175,125,-130,-135,125,-170,182.5,-190,182.5,482.5,,
1,Christopher Woodard,M,SBD,MR-O,83,Raw,1990,TX,80.5,215,227.5,-232.5,227.5,142.5,150,-157.5,150,260,270,282.5,282.5,660,,
2,Luke Janosky,M,SBD,MR-O,83,Raw,1999,TX,79.7,205,212.5,222.5,222.5,112.5,120,127.5,127.5,235,245,255,255,605,,
3,Omar Rahman,M,SBD,MR-O,83,Raw,1993,TX,82.8,187.5,207.5,-227.5,207.5,145,150,,150,212.5,227.5,242.5,242.5,600,,
4,Elias Sanchez,M,SBD,MR-O,83,Raw,1989,TX,79.8,200,212.5,217.5,217.5,117.5,122.5,-127.5,122.5,-237.5,237.5,-245,237.5,577.5,,
5,Brian Nguyen,M,SBD,MR-O,83,Raw,1991,TX,82.1,172.5,185,195,195,125,135,-142.5,135,215,227.5,245,245,575,,
6,Daniel Heard,M,SBD,MR-O,83,Raw,1986,TX,80.9,-167.5,167.5,180,180,125,-130,130,130,175,185,192.5,192.5,502.5,,
1,Lee Gerth,M,SBD,MR-O,93,Raw,1997,TX,90.9,235,247.5,255,255,-145,-145,145,145,285,-290,,285,685,,
2,Bryan McCasland,M,SBD,MR-O,93,Raw,1986,TX,93,207.5,217.5,-225,217.5,160,165,167.5,167.5,225,235,245,245,630,,
3,James Martin #2,M,SBD,MR-O,93,Raw,1983,TX,92,210,215,-217.5,215,140,145,-150,145,245,250,260,260,620,,
4,Nicholas Jones,M,SBD,MR-O,93,Raw,1994,TX,91,215,-220,-220,215,140,142.5,-152.5,142.5,225,235,242.5,242.5,600,,
5,Andrew Hernandez #8,M,SBD,MR-O,93,Raw,1997,TX,83.2,195,-205,205,205,120,130,-137.5,130,220,227.5,-235,227.5,562.5,,
6,Roberto Miranda,M,SBD,MR-O,93,Raw,1991,TX,87.3,150,160,167.5,167.5,112.5,120,125,125,215,227.5,-237.5,227.5,520,,
7,Christopher Heins,M,SBD,MR-O,93,Raw,1987,TX,89.6,157.5,162.5,-167.5,162.5,-107.5,107.5,-112.5,107.5,175,182.5,187.5,187.5,457.5,,
8,Graham Watson,M,SBD,MR-O,93,Raw,1990,TX,91.5,135,140,150,150,85,90,-97.5,90,145,155,165,165,405,,
DQ,Lucas Young,M,SBD,MR-O,93,Raw,1996,TX,91,-152.5,-152.5,-152.5,,107.5,112.5,-125,112.5,185,192.5,-200,192.5,,,
1,Shawn Jawaid,M,SBD,MR-O,105,Raw,1994,TX,104.8,235,245,252.5,252.5,157.5,-165,165,165,275,287.5,-292.5,287.5,705,,
2,Eduardo Pereyra,M,SBD,MR-O,105,Raw,1992,TX,103.3,225,235,240,240,140,-145,145,145,292.5,302.5,-310,302.5,687.5,,
3,Corbin Thornbrough,M,SBD,MR-O,105,Raw,1990,TX,103.2,220,227.5,230,230,150,-157.5,-157.5,150,227.5,235,-240,235,615,,
DQ,Dijohn Lester,M,SBD,MR-O,105,Raw,1992,TX,103.3,-207.5,207.5,-227.5,207.5,162.5,167.5,-175,167.5,-275,-285,-285,,,,
DQ,Brandon Kiernan,M,SBD,MR-O,105,Raw,2000,TX,103.4,-185,-185,-185,,,,,,-220,,,,,,
DQ,William Sandoval,M,SBD,MR-O,105,Raw,1992,TX,104.7,-255,-255,-255,,115,125,-135,125,240,-250,255,255,,,
1,Pedro Gonzalez,M,SBD,MR-O,120,Raw,1996,TX,119,262.5,272.5,285,285,157.5,-167.5,,157.5,272.5,285,-290,285,727.5,,
2,Joshua Martinez,M,SBD,MR-O,120,Raw,1992,TX,118.1,210,220,225,225,162.5,170,175,175,230,-245,245,245,645,,
1,Derek Dowrey,M,SBD,MR-O,120+,Raw,1993,TX,175.2,365,375,385,385,210,220,230,230,330,340,-345,340,955,,
2,Mike Sutton,M,SBD,MR-O,120+,Raw,1994,TX,126.5,260,275,285,285,160,170,177.5,177.5,280,297.5,-310,297.5,760,,
3,Marcus Lindley,M,SBD,MR-O,120+,Raw,2001,KS,180.5,260,280,300,300,-200,210,-215,210,210,225,-275,225,735,,
DQ,John Duenes,M,SBD,MR-O,120+,Raw,1984,TX,137.5,-265,265,272.5,272.5,-172.5,172.5,-180,172.5,,,,,,,
1,Gunnar Phillips,M,SBD,MR-T1,59,Raw,2005,TX,57.4,110,-117.5,-117.5,110,-70,70,75,75,115,125,135,135,320,,
1,Matyas Castro,M,SBD,MR-T2,59,Raw,2003,TX,58.7,87.5,100,107.5,107.5,67.5,75,-80,75,127.5,137.5,142.5,142.5,325,,
1,Zachary Garcez,M,SBD,MR-T2,66,Raw,2004,TX,65.5,125,130,137.5,137.5,77.5,-85,-85,77.5,137.5,142.5,147.5,147.5,362.5,,
DQ,Caleb Pruett,M,SBD,MR-T2,83,Raw,2003,TX,79.3,-145,-152.5,152.5,152.5,-85,-85,-85,,150,162.5,-172.5,162.5,,,
1,Noah Moncrieft,M,SBD,MR-T2,93,Raw,2003,TX,87,167.5,182.5,190,190,82.5,115,122.5,122.5,185,195,205,205,517.5,,
2,Jackson Nielsen,M,SBD,MR-T2,93,Raw,2002,TX,86.7,170,182.5,-190,182.5,97.5,102.5,110,110,200,207.5,217.5,217.5,510,,
1,Michael Van,M,SBD,MR-T3,66,Raw,2000,TX,64.6,130,137.5,145,145,95,102.5,-105,102.5,172.5,185,187.5,187.5,435,,
2,Alex Cano,M,SBD,MR-T3,66,Raw,2001,TX,64.6,132.5,140,142.5,142.5,77.5,82.5,90,90,185,190,-202.5,190,422.5,,
DQ,Julian Pardo,M,SBD,MR-T3,74,Raw,2000,TX,67.9,-160,160,-162.5,160,-120,-120,-120,,182.5,-187.5,187.5,187.5,,,
1,Nicholas Propst,M,SBD,MR-T3,105,Raw,2000,TX,104.6,215,225,-235,225,-125,127.5,137.5,137.5,205,210,-220,210,572.5,,
2,David Sanchez #5,M,SBD,MR-T3,105,Raw,2001,TX,99.2,162.5,175,185,185,125,130,137.5,137.5,192.5,202.5,210,210,532.5,,
3,Ernesto Gamez IV,M,SBD,MR-T3,105,Raw,2000,TX,99.5,160,170,182.5,182.5,115,127.5,-130,127.5,202.5,215,-227.5,215,525,,
1,Elimelek Acuna,M,SBD,MR-T3,120,Raw,2000,TX,115,220,227.5,-240,227.5,142.5,-150,-152.5,142.5,220,227.5,232.5,232.5,602.5,,
1,Marcus Lindley,M,SBD,MR-T3,120+,Raw,2001,KS,180.5,260,280,300,300,-200,210,-215,210,210,225,-275,225,735,,
1,Robert Godinez #2,M,SBD,MR-Y1,35,Raw,2011,TX,34.7,-27.5,27.5,-30,27.5,-15,15,20,20,30,35,37.5,37.5,85,,
1,Brandon Esteves,M,SBD,M-T2,105,Single-ply,2002,TX,103.2,272.5,290,302.5,302.5,160,175,187.5,187.5,265,290,-310,290,780,,
2,Avery Womack,M,SBD,M-T2,105,Single-ply,2003,TX,104.8,217.5,227.5,235,235,-115,117.5,122.5,122.5,215,-220,,215,572.5,,
1,Jaden Luhn,M,SBD,M-T2,120,Single-ply,2003,TX,115.6,232.5,247.5,252.5,252.5,120,127.5,-132.5,127.5,192.5,-207.5,-207.5,192.5,572.5,,
2,Paul Zertuche,M,SBD,M-T2,120,Single-ply,2002,TX,118.5,-205,205,210,210,130,140,142.5,142.5,197.5,207.5,-222.5,207.5,560,,
1,Yakariel Young,M,SBD,M-T3,74,Single-ply,2001,TX,71.1,-212.5,220,227.5,227.5,110,115,127.5,127.5,212.5,-220,220,220,575,,
1,Adrian Ian Alvidrez,M,SBD,M-T3,105,Single-ply,2001,TX,101,262.5,275,-287.5,275,-142.5,142.5,152.5,152.5,247.5,262.5,272.5,272.5,700,,
1,Joey Garza,M,SBD,M-T3,120,Single-ply,2001,TX,112.1,-260,260,267.5,267.5,130,-140,140,140,265,267.5,272.5,272.5,680,,
1,Hunter Young #1,M,BD,M-T3,74,Single-ply,2000,TX,72.7,,,,,-82.5,82.5,90,90,177.5,-185,185,185,275,,
