Place,Name,BirthDate,Sex,State,Division,Equipment,BodyweightKg,WeightClassKg,Squat1Kg,Squat2Kg,Squat3Kg,Best3SquatKg,Bench1Kg,Bench2Kg,Bench3Kg,Best3BenchKg,Deadlift1Kg,Deadlift2Kg,Deadlift3Kg,Best3DeadliftKg,TotalKg,Event
1,Makaela Leeder,,F,ON,Sub-Juniors,Raw,61.27,63,75,82.5,87.5,87.5,52.5,57.5,60,60,90,95,102.5,102.5,250,SBD
1,Emma Kairys,,F,ON,Juniors,Raw,49.39,52,70,72.5,-82.5,72.5,42.5,47.5,50,50,50,80,90,90,212.5,SBD
1,Valerie Fournier,,F,ON,Juniors,Raw,54.08,57,107.5,115,-122.5,115,52.5,57.5,62.5,62.5,115,125,142.5,142.5,320,SBD
2,Sydney Hunt,,F,ON,Juniors,Raw,56.42,57,-100,102.5,105,105,65,-67.5,67.5,67.5,120,122.5,127.5,127.5,300,SBD
DQ,Jasmin Parmar,,F,ON,Juniors,Raw,61.24,63,-90,-90,-90,,,,,,,,,,,SBD
1,Abby Wiebe,,F,ON,Juniors,Raw,69.88,76,95,100,105,105,80,85.5,-88,85.5,120,130,145,145,335.5,SBD
2,Ophelia Chung,,F,ON,Juniors,Raw,73.48,76,110,117.5,125,125,67.5,-72.5,72.5,72.5,130,-137.5,137.5,137.5,335,SBD
3,Monica Sanders,,F,ON,Juniors,Raw,75.3,76,107.5,115,122.5,122.5,62.5,67.5,72.5,72.5,125,132.5,-137.5,132.5,327.5,SBD
1,Janey Kim,,F,ON,Open,Raw,50.69,52,65,72.5,-82.5,72.5,35,37.5,-40,37.5,65,70,-72.5,70,180,SBD
1,Vanessa Luty,,F,ON,Open,Raw,55.61,57,-117.5,117.5,120,120,52.5,55,-60,55,150,157.5,162.5,162.5,337.5,SBD
1,Claudia Zloteau,,F,ON,Open,Raw,61.3,63,127.5,130,-135,130,67.5,70,-72.5,70,132.5,140,145,145,345,SBD
2,Elena Popadic,,F,ON,Open,Raw,60.95,63,117.5,-125,-125,117.5,60,65,-70,65,122.5,132.5,140,140,322.5,SBD
3,Cassandra Chin,,F,ON,Open,Raw,59.18,63,112.5,-117.5,-117.5,112.5,52.5,57.5,-60,57.5,122.5,132.5,137.5,137.5,307.5,SBD
4,Hannah Orser,,F,ON,Open,Raw,61.29,63,-95,95,-97.5,95,55,-57.5,-57.5,55,115,120,122.5,122.5,272.5,SBD
1,Christina Potito,,F,ON,Open,Raw,67.69,69,-120,120,127.5,127.5,60,65,70,70,125,135,142.5,142.5,340,SBD
2,Salwa Qadir,,F,ON,Open,Raw,66.72,69,-77.5,77.5,85,85,45,50,-52.5,50,102.5,110,-117.5,110,245,SBD
1,Paige Minicola,,F,ON,Open,Raw,74.54,76,145,152.5,157.5,157.5,72.5,-77.5,77.5,77.5,155,167.5,-175,167.5,402.5,SBD
2,Brianna Kitchener,,F,ON,Open,Raw,74.43,76,125,-130,135,135,-65,67.5,70,70,130,135,140,140,345,SBD
3,Rahaf Mardini,,F,ON,Open,Raw,73.55,76,95,100,110,110,47.5,-52.5,-52.5,47.5,117.5,127.5,-135,127.5,285,SBD
4,Sandy Arvantis,,F,ON,Open,Raw,74.24,76,92.5,97.5,102.5,102.5,47.5,52.5,-57.5,52.5,110,117.5,122.5,122.5,277.5,SBD
1,Isabelle Aube-Peterkin,,F,ON,Open,Raw,81.89,84,-122.5,122.5,130,130,77.5,82.5,85,85,145,152.5,160,160,375,SBD
1,Melissa Lemire,,F,ON,Open,Raw,100,84+,137.5,142.5,145,145,,70,82.5,82.5,145,152.5,160,160,387.5,SBD
2,Veronique Lemire,,F,ON,Open,Raw,90.15,84+,135,142.5,147.5,147.5,57.5,62.5,65,65,115,122.5,130,130,342.5,SBD
3,Natasha Mustard,,F,ON,Open,Raw,96.54,84+,110,115,122.5,122.5,52.5,55,60,60,125,137.5,142.5,142.5,325,SBD
1,Laura Moia,,F,ON,Masters 1,Raw,66.76,69,120,127.5,-130,127.5,-45,45,47.5,47.5,155,-160,,155,330,SBD
1,Louise Beard,,F,ON,Masters 3,Raw,73.38,76,65,72.5,-85,72.5,45,52.5,57.5,57.5,100,112.5,125,125,255,SBD
1,Eric Gomes,,M,ON,Juniors,Raw,57.43,59,127.5,142.5,-155,142.5,87.5,97.5,105,105,160,172.5,-182.5,172.5,420,SBD
1,Ryan Mood,2003-08-13,M,ON,Juniors,Raw,71.37,74,-170,170,182.5,182.5,100,105,112.5,112.5,210,220,230,230,525,SBD
2,Matthew Mancini,,M,ON,Juniors,Raw,70.76,74,140,150,160,160,85,95,97.5,97.5,155,167.5,177.5,177.5,435,SBD
1,Ian Tibbs,,M,ON,Juniors,Raw,81.55,83,202.5,210,217.7,217.7,137.5,145,-147.5,145,245,-260,265,265,627.7,SBD
2,Ali Mujaba,,M,ON,Juniors,Raw,82.59,83,172.5,185,192.5,192.5,120,125,-130,125,217.5,230,237.5,237.5,555,SBD
3,Benedict Alexander,,M,ON,Juniors,Raw,79.86,83,175,180,,180,140,150,155,155,210,,,210,545,SBD
4,Daniel Taylor,,M,ON,Juniors,Raw,75.45,83,170,180,187.5,187.5,92.5,100,105,105,230,-247.5,250,250,542.5,SBD
5,Sam Yang,,M,ON,Juniors,Raw,80.77,83,177.5,-192.5,192.5,192.5,97.5,102.5,110,110,220,237.5,240,240,542.5,SBD
6,Jake Mason,,M,ON,Juniors,Raw,82.58,83,180,187.5,190,190,105,110,115,115,200,215,227.5,227.5,532.5,SBD
7,Peter McGuey,,M,ON,Juniors,Raw,81.28,83,175,182.5,-192.5,182.5,110,-115,115,115,210,220,225,225,522.5,SBD
8,Carter Guernsey,,M,ON,Juniors,Raw,77.53,83,170,182.5,-192.5,182.5,77.5,85,-90,85,175,190,207.5,207.5,475,SBD
9,Jason Cheng,,M,ON,Juniors,Raw,74.13,83,142.5,155,162.5,162.5,77.5,-87.5,87.5,87.5,165,175,185,185,435,SBD
DQ,Roy Sadan,,M,ON,Juniors,Raw,81.43,83,185,192.5,202.5,202.5,107.5,110,117.5,117.5,-217.5,-217.5,-217.5,,,SBD
1,Evan Seymour,,M,ON,Juniors,Raw,90.2,93,240,252.5,-260,252.5,155,165,-172.5,165,250,-260,260,260,677.5,SBD
2,Christian Santos,,M,ON,Juniors,Raw,91.07,93,215,227.5,232.5,232.5,137.5,145,150,150,225,237.5,-245,237.5,620,SBD
3,Lim Estillore,,M,ON,Juniors,Raw,91.39,93,190,200,210,210,140,147.5,152.5,152.5,225,235,247.5,247.5,610,SBD
4,Mark Yadao,,M,ON,Juniors,Raw,90.95,93,205,210,217.5,217.5,125,130,135,135,235,245,-257.5,245,597.5,SBD
5,Zach Bauman,,M,ON,Juniors,Raw,86.49,93,187.5,200,210,210,130,135,137.5,137.5,232.5,247.5,-257.5,247.5,595,SBD
6,Vince Vivona,,M,ON,Juniors,Raw,91.33,93,187.5,197.5,207.5,207.5,-117.5,125,130,130,227.5,242.5,-252.5,242.5,580,SBD
7,Domenic Pagliuca,,M,ON,Juniors,Raw,90.8,93,180,-195,-195,180,145,-155,-155,145,240,252.5,-270,252.5,577.5,SBD
8,Jonathan Choong,,M,ON,Juniors,Raw,91.47,93,187.5,197.5,205,205,132.5,140,-147.5,140,222.5,230,-237.5,230,575,SBD
9,Alec Riddick,,M,ON,Juniors,Raw,90.43,93,140,150,-155,150,105,112.5,115,115,175,182.5,190,190,455,SBD
1,Owen O-Connor,,M,ON,Juniors,Raw,101.01,105,-220,235,-242.5,235,120,130,137.5,137.5,225,240,-250,240,612.5,SBD
1,Ethan Akerman,,M,ON,Juniors,Raw,117.73,120,240,255.5,270,270,145,152.5,-160,152.5,235,247.5,257.5,257.5,680,SBD
2,Christoph Fusch,,M,ON,Juniors,Raw,110.6,120,225,237.5,247.5,247.5,122.5,127.5,132.5,132.5,252.5,-260,,252.5,632.5,SBD
3,Robert Panela,,M,ON,Juniors,Raw,112.5,120,220,230,235,235,102.5,110,115,115,235,247.5,257.5,257.5,607.5,SBD
1,Caleb Culhane,,M,ON,Juniors,Raw,126.52,120+,225,250,-260,250,-135,-135,135,135,225,240,,240,625,SBD
2,Mathew Panela,,M,ON,Juniors,Raw,127.86,120+,210,220,227.5,227.5,80,87.5,-92.5,87.5,220,235,250,250,565,SBD
1,Eric Gomes,,M,ON,Juniors,Raw,57.43,59,127.5,142.5,-155,142.5,87.5,97.5,105,105,160,172.5,-182.5,172.5,420,SBD
1,Kai Cong Yu,,M,ON,Open,Raw,65.91,66,172.5,182.5,-187.5,182.5,100,105,110,110,192.5,202.5,210,210,502.5,SBD
1,Mark Tobias,,M,ON,Open,Raw,73.92,74,250,265,-275,265,142.5,150,155,155,250,265,280,280,700,SBD
2,Julian Raimondo,,M,ON,Open,Raw,71.51,74,170,182.5,,182.5,97.5,102.5,-107.5,102.5,185,,,185,470,SBD
3,Brandon Apostol,,M,ON,Open,Raw,66.6,74,160,-167.5,167.5,167.5,92.5,100,-102.5,100,180,195,-210,195,462.5,SBD
1,Jose Wilson,,M,ON,Open,Raw,82.17,83,260,275.5,-290.5,275.5,150,157.5,165,165,280,295,-310,295,735.5,SBD
2,Jesse Barnes,,M,ON,Open,Raw,82.04,83,205,220,232.5,232.5,142.5,152.5,160,160,240,260,272.5,272.5,665,SBD
3,Andrew Kim,,M,ON,Open,Raw,82.24,83,235,242.5,,242.5,-155,155,162.5,162.5,230,242.5,-250,242.5,647.5,SBD
4,Jonathan Veysey,,M,ON,Open,Raw,80.99,83,200,215,225,225,135,145,-152.5,145,220,235,245,245,615,SBD
5,David Man,,M,ON,Open,Raw,78.93,83,192.5,202.5,210,210,112.5,130,-135,130,220,232.5,240,240,580,SBD
6,Bryant McNamara,,M,ON,Open,Raw,82.2,83,185,192.5,200,200,120,132.5,140,140,207.5,-230,230,230,570,SBD
7,Rick Morrissette,,M,ON,Open,Raw,80.52,83,165,-182.5,182.5,182.5,85,97.5,-102.5,97.5,220,240,260,260,540,SBD
8,Stephen Strumos,,M,ON,Open,Raw,75.04,83,-177.5,182.5,197.5,197.5,105,110,-117.5,110,210,220,-230,220,527.5,SBD
9,Riley McGee,,M,ON,Open,Raw,79.58,83,-142.5,-142.5,142.5,142.5,105,120,-132.5,120,165,185,200,200,462.5,SBD
DQ,Kyle Barrett,,M,ON,Open,Raw,80.15,83,-207.5,-207.5,-207.5,,,,,,,,,,,SBD
1,Jun Kim,,M,ON,Open,Raw,91.46,93,210,220,-227.5,220,135,-142.5,-142.5,135,250,262.5,272.5,272.5,627.5,SBD
2,Brandon Bunardi,,M,ON,Open,Raw,84.24,93,165,177.5,187.5,187.5,110,120,125,125,237.5,250,260,260,572.5,SBD
3,Jordan Bates,,M,ON,Open,Raw,86.23,93,150,160,172.5,172.5,120,127.5,-132.5,127.5,187.5,200,210,210,510,SBD
4,Zander Paine,,M,ON,Open,Raw,85.07,93,157.5,167.5,175,175,105,112.5,120,120,185,200,-215,200,495,SBD
5,Mario Mirabelli,,M,ON,Open,Raw,89.9,93,160,167.5,175,175,95,105,110,110,165,175,182.5,182.5,467.5,SBD
1,Sheamus Addy,,M,ON,Open,Raw,102.88,105,210,225,235,235,125,132.5,-137.5,132.5,220,235,247.5,247.5,615,SBD
2,Michael Viggiani,,M,ON,Open,Raw,95.73,105,160,170,180,180,115,125,-132.5,125,200,212.5,222.5,222.5,527.5,SBD
3,Mackenzie Grant,,M,ON,Open,Raw,98.43,105,155,-185,185,185,90,100,-110,100,170,195,205,205,490,SBD
4,Brock Huggins,,M,ON,Open,Raw,108.01,120,127.5,140,147.5,147.5,85,90,95,95,157.5,170,180,180,422.5,SBD
5,Brad Nicholls,,M,ON,Open,Raw,95.92,105,115,120,-130,120,-75,75,-85,75,160,165,-170,165,360,SBD
1,Kam Hughes,,M,ON,Open,Raw,114.99,120,265,280,290,290,177.5,185,190,190,290,310,-322.5,310,790,SBD
2,McKenzie Arner,,M,ON,Open,Raw,109.22,120,237.5,-247.5,247.5,247.5,150,155,160,160,287.5,-305,-305,287.5,695,SBD
3,Pavel Kanfer,,M,ON,Open,Raw,117.55,120,235,-237.5,-237.5,235,150,,,150,235,,,235,620,SBD
1,Jesse Macmillan,,M,ON,Open,Raw,132.83,120+,265,277.5,290,290,147.5,155,160,160,305,325,-330,325,775,SBD
2,Trevor Greenwood,,M,ON,Open,Raw,148.32,120+,175,,,175,210,-220,-220,210,175,-200,-205,175,560,SBD
3,Andrew Simmons,,M,ON,Open,Raw,135.9,120+,170,180,190,190,120,-130,-130,120,190,210,217,217,527,SBD
1,Dale Willicombe,,M,ON,Masters 1,Raw,114.75,120,240,-252.5,-252.5,240,157.7,167.5,175,175,240,257.5,-272.5,257.5,672.5,SBD
1,Jim Ohlman,,M,ON,Masters 2,Raw,82.68,83,167.5,175,-180,175,87.5,-95,95,95,205,215,222.5,222.5,492.5,SBD
1,David Pigozzo,,M,ON,Masters 2,Raw,102.8,105,180,190,200,200,120,127.5,135,135,217.5,227.5,-235,227.5,562.5,SBD
1,Kevin Grant-Hose,,M,ON,Masters 3,Raw,98.61,105,160,165,170,170,92.5,102.5,110,110,170,185,192.5,192.5,472.5,SBD
