Place,Name,Sex,Event,Division,WeightClassKg,Equipment,BirthYear,Team,State,BodyweightKg,Squat1Kg,Squat2Kg,Squat3Kg,Best3SquatKg,Bench1Kg,Bench2Kg,Bench3Kg,Best3BenchKg,Deadlift1Kg,Deadlift2Kg,Deadlift3Kg,Best3DeadliftKg,TotalKg,BirthDate
1,Natali Dominguez,F,SBD,F-C,43,Single-ply,2001,Midland University,TX,42.3,120,127.5,138,138,75,-80,-83.5,75,125,132.5,-137.5,132.5,345.5,
DQ,Alexandra Lazarus,F,SBD,F-C,43,Single-ply,2000,Midland University,LA,41.5,-95,-100,-100,,42.5,45,47.5,47.5,100,105,110,110,,
DQ,Zoe Jackson,F,SBD,F-C,47,Single-ply,2002,Blue Mountain College,MS,45.1,95,-102.5,102.5,102.5,47.5,52.5,57.5,57.5,-110,-117.5,-117.5,,,
DQ,Sabrina Espinoza,F,SBD,F-C,47,Single-ply,2001,,TX,46.2,-117.5,-127.5,-127.5,,67.5,-72.5,-72.5,67.5,127.5,-132.5,-132.5,127.5,,
1,Amber Saenz,F,SBD,F-C,52,Single-ply,2001,Midland University,TX,51.9,142.5,150,155,155,85,90,92.5,92.5,127.5,137.5,-142.5,137.5,385,
2,Mikaela Leibfried,F,SBD,F-C,52,Single-ply,1999,Midland University,NE,51.4,145,-150,-150,145,80,87.5,95,95,125,-137.5,-145,125,365,
3,Braiana Tomino,F,SBD,F-C,52,Single-ply,2001,,LA,50.7,115,122.5,127.5,127.5,55,60,-65,60,130,-140,-140,130,317.5,
4,Marina Cantu,F,SBD,F-C,52,Single-ply,1998,Sam Houston State University Powerlifting,TX,51.4,100,107.5,112.5,112.5,52.5,57.5,60,60,102.5,110,-115,110,282.5,
5,Cara Hayes,F,SBD,F-C,52,Single-ply,2000,,LA,50.8,-105,105,-110,105,50,52.5,55,55,110,-115,-115,110,270,
2,Skyleigh Sears,F,SBD,F-C,57,Single-ply,2000,Midland University,TX,56.2,185,-190,-190,185,92.5,97.5,100,100,170,-177.5,-200,170,455,
3,Xacaria Clark,F,SBD,F-C,57,Single-ply,2002,Midland University,LA,56.1,145,157.5,162.5,162.5,75,80,85,85,165,177.5,-193.5,177.5,425,
4,Kaley Migues,F,SBD,F-C,57,Single-ply,1999,,LA,56.8,-122.5,122.5,130,130,75,-77.5,-77.5,75,105,110,115,115,320,
DQ,Criselda Facundo,F,SBD,F-C,57,Single-ply,2001,,TX,56.1,-172.5,-180,-180,,100,105,112.5,112.5,172.5,-180,-180,172.5,,
1,Bella Vargas,F,SBD,F-C,57,Single-ply,2000,,TX,56.4,157.5,165,170,170,105,115,125.5,125.5,-187.5,-187.5,187.5,187.5,483,
1,Aaliyah Portales,F,SBD,F-C,63,Single-ply,2002,Midland University,TX,60.8,160,172.5,-182.5,172.5,90,95,-100,95,162.5,177.5,-182.5,177.5,445,
2,Chelsea Baudoin,F,SBD,F-C,63,Single-ply,1999,,LA,60.9,147.5,152.5,160,160,100,105,,105,122.5,130,137.5,137.5,402.5,
3,Zoey Carrico,F,SBD,F-C,63,Single-ply,2002,Midland University,NE,62.2,130,140,147.5,147.5,70,75,80,80,135,140,-177.5,140,367.5,
4,Joscelyn Collins,F,SBD,F-C,63,Single-ply,2002,,LA,62.4,-137.5,-137.5,137.5,137.5,82.5,87.5,-95,87.5,112.5,-122.5,122.5,122.5,347.5,
5,Marie Grisaffe,F,SBD,F-C,63,Single-ply,2001,,LA,60.8,100,107.5,-115,107.5,60,-65,-65,60,115,122.5,127.5,127.5,295,
6,Kaitlyn Kirk,F,SBD,F-C,63,Single-ply,2000,Blue Mountain College,MS,61.2,105,110,-120,110,52.5,57.5,-60,57.5,102.5,110,-127.5,110,277.5,
DQ,Melanie Madere,F,SBD,F-C,63,Single-ply,1998,,LA,61.9,140,150,-155,150,-102.5,-105,-105,,145,152.5,-160,152.5,,
1,Lacey Pender,F,SBD,F-C,69,Single-ply,2001,Midland University,TX,67.5,175,185,192.5,192.5,75,92.5,100,100,160,170,180,180,472.5,
2,Macy Moorehead,F,SBD,F-C,69,Single-ply,2002,Blue Mountain College,MS,67.4,-150,150,165,165,70,-80,-80,70,170,-175,175,175,410,
3,Savannah York,F,SBD,F-C,69,Single-ply,2001,,LA,67.6,147.5,155,-162.5,155,72.5,92.5,-100,92.5,140,142.5,-145,142.5,390,
4,Adalia McDowell,F,SBD,F-C,69,Single-ply,1999,Sam Houston State University Powerlifting,TX,68.7,-120,120,130,130,72.5,77.5,80,80,147.5,157.5,-182.5,157.5,367.5,
5,Lucy McCann,F,SBD,F-C,69,Single-ply,2001,,TX,68.2,122.5,130,-135,130,70,72.5,-77.5,72.5,127.5,137.5,152.5,152.5,355,
6,Audrey Shank,F,SBD,F-C,69,Single-ply,2002,,LA,66.3,135,142.5,-150,142.5,57.5,65,70,70,117.5,127.5,140,140,352.5,
7,Felicity McWilliams,F,SBD,F-C,69,Single-ply,2002,,LA,67.3,110,117.5,122.5,122.5,60,67.5,75,75,107.5,117.5,122.5,122.5,320,
1,Geri Fredrickson,F,SBD,F-C,76,Single-ply,2001,Midland University,WI,74,195,202.5,207.5,207.5,100,105,112.5,112.5,150,165,-177.5,165,485,
2,Cara Garcia,F,SBD,F-C,76,Single-ply,2001,,TX,71.2,-157.5,-162.5,162.5,162.5,82.5,87.5,-95,87.5,142.5,150,157.5,157.5,407.5,
3,Gabriela Uriegas,F,SBD,F-C,76,Single-ply,2001,,TX,75.6,-160,-160,160,160,82.5,85,87.5,87.5,137.5,142.5,-162.5,142.5,390,
4,Afrin Momin,F,SBD,F-C,76,Single-ply,2000,,TX,74.6,142.5,-150,-150,142.5,70,75,-77.5,75,147.5,150,155,155,372.5,
5,Breana Massey,F,SBD,F-C,76,Single-ply,2001,Blue Mountain College,MS,73.9,-140,140,-147.5,140,60,-72.5,-72.5,60,140,145,-172.5,145,345,
DQ,Allie Blasingame,F,SBD,F-C,76,Single-ply,2002,,TX,75.2,-182.5,-182.5,182.5,182.5,-97.5,97.5,102.5,102.5,170,-187.5,-187.5,170,,
1,Marissa Lutz,F,SBD,F-C,84,Single-ply,2001,Midland University,TX,82.8,205,-212.5,-212.5,205,120,127.5,132.5,132.5,170,177.5,185,185,522.5,
2,Bethany Patton,F,SBD,F-C,84,Single-ply,2002,Blue Mountain College,MS,82.7,-175,175,180,180,95,97.5,100,100,147.5,160,-175,160,440,
3,Sara DeMattie,F,SBD,F-C,84,Single-ply,2001,,LA,82.9,157.5,165,-177.5,165,-80,80,-90,80,155,170,-197.5,170,415,
4,Emily St. Germain,F,SBD,F-C,84,Single-ply,1998,,LA,83.4,150,155,-160,155,95,100,-102.5,100,137.5,147.5,-155,147.5,402.5,
1,Lilliana Poisso,F,SBD,F-C,84+,Single-ply,1998,,LA,132.1,247.5,260,265,265,147.5,155,,155,200,215,-225,215,635,
2,Krysti Llamas,F,SBD,F-C,84+,Single-ply,2001,Midland University,TX,105.9,245,255,-260,255,130,140,147.5,147.5,165,175,185,185,587.5,
3,Brionna Ford,F,SBD,F-C,84+,Single-ply,2002,Midland University,LA,128.9,242.5,-250,250,250,130,-145,152.5,152.5,175,185,-187.5,185,587.5,
4,Margaret Dittman,F,SBD,F-C,84+,Single-ply,1999,,LA,111.6,175,182.5,187.5,187.5,-165,167.5,181.5,181.5,-137.5,137.5,147.5,147.5,516.5,
5,Ja'Niya Reed,F,SBD,F-C,84+,Single-ply,2000,,LA,102.3,190,195,205,205,-97.5,97.5,102.5,102.5,145,157.5,177.5,177.5,485,
6,Yesenia Martinez,F,SBD,F-C,84+,Single-ply,1999,Midland University,TX,90.4,180,190,192.5,192.5,110,115,120,120,150,160,165,165,477.5,
7,Alexandra Sanders,F,SBD,F-C,84+,Single-ply,2001,,LA,112.3,142.5,152.5,162.5,162.5,50,-82.5,87.5,87.5,130,142.5,152.5,152.5,402.5,
DQ,Madisyn Herron,F,SBD,F-C,84+,Single-ply,2001,Blue Mountain College,MS,169.57,300,315,320,320,-127.5,-127.5,-127.5,,-175,,,,,
1,Destinie' Small,F,SBD,F-Jr,57,Single-ply,2000,,TX,54.6,137.5,145,150,150,77.5,-82.5,-82.5,77.5,145,152.5,-155,152.5,380,
1,Madison Curry,F,SBD,F-Jr,63,Single-ply,1998,,TX,57.4,160,167.5,-177.5,167.5,95,100,102.5,102.5,152.5,160,165,165,435,
1,Gabby Martinez,F,SBD,F-Jr,69,Single-ply,1997,,TX,68.5,220,-227.5,232.5,232.5,130,135,145,145,200,220.5,-227.5,220.5,598,
2,Brittany Rabe,F,SBD,F-Jr,69,Single-ply,1998,,NE,66.8,187.5,202.5,207.5,207.5,102.5,110,-115,110,175,187.5,-197.5,187.5,505,
3,Natalia Marquez,F,SBD,F-Jr,69,Single-ply,2001,,TX,66.6,165,-172.5,-175,165,85,90,-92.5,90,165,167.5,-172.5,167.5,422.5,
1,Lauryn Cudworth,F,SBD,F-Jr,76,Single-ply,1997,,WI,75.7,185,195,205,205,80,87.5,92.5,92.5,182.5,195,205,205,502.5,
2,Tori Contreras,F,SBD,F-Jr,76,Single-ply,2001,,TX,73.2,-167.5,167.5,-175,167.5,72.5,77.5,-82.5,77.5,142.5,150,157.5,157.5,402.5,
1,Christina Peterson,F,SBD,F-Jr,84+,Single-ply,2000,,TX,111.2,-200,200,-207.5,200,70,72.5,-75,72.5,150,157.5,-160,157.5,430,
1,Dulce De La Cruz,F,SBD,FR-C,43,Raw,2001,,KS,42.3,80,87.5,92.5,92.5,37.5,42.5,45,45,100,-107.5,-107.5,100,237.5,
1,Allison Garden,F,SBD,FR-C,47,Raw,1997,,FL,46.8,115,122.5,127.5,127.5,70,75,77.5,77.5,122.5,132.5,-140,132.5,337.5,
2,Ava Biemer,F,SBD,FR-C,47,Raw,2002,The Ohio State University,NY,45.6,55,62.5,65,65,30,32.5,-35,32.5,77.5,85,90,90,187.5,
DQ,Shu'Ron Thompson,F,SBD,FR-C,47,Raw,2001,Missouri Valley Vikings,MO,46,95,100,-105,100,55,57.5,60,60,-130,-130,-130,,,
1,Quynh-Anh Nguyen,F,SBD,FR-C,52,Raw,1999,,TX,52,127.5,135,140,140,57.5,60,62.5,62.5,147.5,155,157.5,157.5,360,
2,Isabel Cunha,F,SBD,FR-C,52,Raw,1998,,NJ,50.3,115,122.5,-127.5,122.5,70,75,77.5,77.5,137.5,150,157.5,157.5,357.5,
3,Jessica Espinal,F,SBD,FR-C,52,Raw,2001,,TX,50.6,115,125,-130,125,65,70,75,75,142.5,150,-160,150,350,
4,Elyse Velasquez,F,SBD,FR-C,52,Raw,2002,Midland University,MI,50.4,102.5,110,112.5,112.5,60,65,-67.5,65,147.5,155,-163.5,155,332.5,
5,Eliana Umbach,F,SBD,FR-C,52,Raw,1999,,TX,51.8,110,117.5,120,120,65,67.5,-72.5,67.5,142.5,-152.5,-152.5,142.5,330,
6,Jessica Tomas,F,SBD,FR-C,52,Raw,1999,,AL,51.4,110,112.5,127.5,127.5,55,60,65,65,120,127.5,132.5,132.5,325,
7,Rilee Stewart,F,SBD,FR-C,52,Raw,2001,Missouri Valley Vikings,MO,50.9,97.5,-105,-105,97.5,70,-75,-75,70,-130,130,145,145,312.5,
8,Valerie Tran,F,SBD,FR-C,52,Raw,1999,,TX,51.9,-97.5,97.5,-107.5,97.5,57.5,-60,-60,57.5,135,142.5,145,145,300,
9,Samantha Pappas,F,SBD,FR-C,52,Raw,1996,,VA,50.5,87.5,95,102.5,102.5,52.5,57.5,60,60,115,125,132.5,132.5,295,
10,Abigail Maxson-Stabile,F,SBD,FR-C,52,Raw,1999,The Ohio State University,OH,52,100,110,-117.5,110,55,60,-62.5,60,107.5,112.5,120,120,290,
11,Anh Phan #2,F,SBD,FR-C,52,Raw,1999,,IL,51.3,-92.5,97.5,-102.5,97.5,42.5,47.5,-52.5,47.5,117.5,127.5,137.5,137.5,282.5,
12,Casey Cunningham,F,SBD,FR-C,52,Raw,2000,,OH,48.4,92.5,97.5,102.5,102.5,45,47.5,-50,47.5,115,122.5,-130,122.5,272.5,
13,Sydney Farris,F,SBD,FR-C,52,Raw,2002,Missouri Valley Vikings,MO,49.8,95,-100,-100,95,42.5,-45,-45,42.5,90,95,105,105,242.5,
14,Ava Gomez,F,SBD,FR-C,52,Raw,2000,,FL,51.7,85,90,-92.5,90,35,37.5,-40,37.5,100,105,107.5,107.5,235,
15,Lauryn Millard,F,SBD,FR-C,52,Raw,1999,The Ohio State University,VA,49.7,57.5,65,-70,65,32.5,37.5,42.5,42.5,90,97.5,102.5,102.5,210,
1,Celine Crum,F,SBD,FR-C,57,Raw,1998,,SC,56.7,150,160,165,165,92.5,-97.5,97.5,97.5,175,185,192.5,192.5,455,
2,Maya Wright,F,SBD,FR-C,57,Raw,1997,,NY,55.4,155,-162,-162.5,155,85,87.5,-90,87.5,155,165,-175,165,407.5,
3,Caitlin Berry #1,F,SBD,FR-C,57,Raw,2002,Midland University,TX,56.5,130,135,140,140,-105,105,-117.5,105,155,-162.5,-165,155,400,
4,Haley Devers,F,SBD,FR-C,57,Raw,2001,,PA,56,130,132.5,137.5,137.5,97.5,102.5,107.5,107.5,137.5,142.5,145,145,390,
5,Casey Ingram,F,SBD,FR-C,57,Raw,1996,,TX,55.7,-112.5,112.5,122.5,122.5,65,75,-77.5,75,137.5,147.5,152.5,152.5,350,
6,Elaine Chen,F,SBD,FR-C,57,Raw,1996,The Ohio State University,OH,54.6,105,112.5,-117.5,112.5,60,65,67.5,67.5,150,160,167.5,167.5,347.5,
7,Adrianne Thomas,F,SBD,FR-C,57,Raw,1999,,TX,53,105,112.5,120,120,52.5,57.5,62.5,62.5,140,150,-160,150,332.5,
8,Kailee Carr,F,SBD,FR-C,57,Raw,2001,McKendree University Powerlifting,MO,55.2,102.5,-107.5,-107.5,102.5,60,62.5,65,65,130,140,147.5,147.5,315,
9,Bailee Passmore,F,SBD,FR-C,57,Raw,2001,,KS,52.6,117.5,-120,-120,117.5,-62.5,62.5,-65,62.5,122.5,-127.5,130,130,310,
10,Tien Tran #1,F,SBD,FR-C,57,Raw,2000,,NE,56.2,105,110,-115,110,50,52.5,55,55,127.5,135,142.5,142.5,307.5,
11,Jaden Stafford,F,SBD,FR-C,57,Raw,2000,,MN,56.7,102.5,107.5,-110,107.5,57.5,60,-62.5,60,130,135,-140,135,302.5,
12,Emily Bennett,F,SBD,FR-C,57,Raw,2001,Missouri Valley Vikings,MO,56.1,-115,-120,120,120,-80,80,-85,80,97.5,-105,-105,97.5,297.5,
13,Megan Choy,F,SBD,FR-C,57,Raw,2001,UW - Madison,WI,54.7,97.5,105,-110,105,45,50,-52.5,50,125,135,-140,135,290,
14,Jessica Smith,F,SBD,FR-C,57,Raw,2000,Sam Houston State University Powerlifting,TX,54.6,102.5,110,-115,110,35,40,-45,40,117.5,127.5,-137.5,127.5,277.5,
15,Daria Fratangeli,F,SBD,FR-C,57,Raw,1999,,PA,55.7,92.5,100,105,105,52.5,57.5,-62.5,57.5,107.5,115,-122.5,115,277.5,
16,Elizabeth Lam,F,SBD,FR-C,57,Raw,1999,,IL,56.2,102.5,110,117.5,117.5,45,52.5,-55,52.5,95,105,107.5,107.5,277.5,
17,Natalie Dear,F,SBD,FR-C,57,Raw,2001,,OK,54.7,85,92.5,97.5,97.5,-45,50,-52.5,50,105,110,117.5,117.5,265,
18,Dian Poremba,F,SBD,FR-C,57,Raw,2002,,IL,54.9,90,97.5,100,100,30,32.5,-35,32.5,115,125,132.5,132.5,265,
19,Ella Branson,F,SBD,FR-C,57,Raw,2002,,TX,56,92.5,97.5,-102.5,97.5,50,-55,-55,50,100,105,110,110,257.5,
20,Mackenzie Caputo,F,SBD,FR-C,57,Raw,1998,Sam Houston State University Powerlifting,TX,55.7,82.5,87.5,90,90,45,50,-52.5,50,100,112.5,-120,112.5,252.5,
21,Mikayla Deyoung-Laughlin,F,SBD,FR-C,57,Raw,2002,Arizona State Powerlifting,MI,53.8,-80,80,-85,80,42.5,47.5,-55,47.5,105,110,-120,110,237.5,
22,Kristina Atkinson,F,SBD,FR-C,57,Raw,2001,,VA,56,65,72.5,80,80,42.5,47.5,52.5,52.5,90,97.5,-102.5,97.5,230,
23,Breanna Sowinski,F,SBD,FR-C,57,Raw,2002,Missouri Valley Vikings,MO,56.3,80,82.5,,82.5,30,35,42.5,42.5,87.5,100,-105,100,225,
1,Laisha Gardner,F,SBD,FR-C,63,Raw,1999,,TX,61.7,145,152.5,155,155,87.5,92.5,100,100,175,185,-196,185,440,
2,Luisa Cruz,F,SBD,FR-C,63,Raw,2000,Midland University,TX,61.5,142.5,147.5,152.5,152.5,67.5,75,-77.5,75,180,-196,-196,180,407.5,
3,Amanda Imes,F,SBD,FR-C,63,Raw,2000,Midland University,TX,61.6,-142.5,142.5,-152.5,142.5,77.5,85,87.5,87.5,137.5,145,150,150,380,
4,Evelyn Mendoza,F,SBD,FR-C,63,Raw,1999,UW - Madison,WI,62.6,137.5,142.5,147.5,147.5,67.5,72.5,-77.5,72.5,142.5,152.5,-162.5,152.5,372.5,
5,Destiny Dominguez,F,SBD,FR-C,63,Raw,1999,,TX,62.5,115,122.5,-132.5,122.5,97.5,-102.5,-102.5,97.5,137.5,150,-157.5,150,370,
6,Hallie Brinson,F,SBD,FR-C,63,Raw,2000,,TX,61.6,-127.5,127.5,135,135,-72.5,72.5,-77.5,72.5,150,157.5,160,160,367.5,
7,Katelyn Dundas,F,SBD,FR-C,63,Raw,1999,Midland University,NC,61.1,130,135,140,140,62.5,67.5,70,70,132.5,147.5,-160,147.5,357.5,
8,Caitlin Ludford,F,SBD,FR-C,63,Raw,2002,,MA,61.8,120,130,137.5,137.5,65,-72.5,72.5,72.5,125,-132.5,-132.5,125,335,
9,Jailyn Christophene,F,SBD,FR-C,63,Raw,1999,Missouri Valley Vikings,MO,60.1,107.5,-120,-120,107.5,52.5,57.5,-60,57.5,157.5,165,-172.5,165,330,
10,Cassandra Vargas,F,SBD,FR-C,63,Raw,2001,,TX,62.3,110,117.5,-127.5,117.5,60,65,-67.5,65,132.5,140,-145,140,322.5,
11,Annie Nguyen,F,SBD,FR-C,63,Raw,2000,,TX,62.4,105,112.5,-117.5,112.5,55,-60,60,60,137.5,150,-157.5,150,322.5,
12,Ruby Bankston,F,SBD,FR-C,63,Raw,1999,,UT,61.5,120,-125,125,125,50,52.5,-57.5,52.5,132.5,137.5,142.5,142.5,320,
13,Hannah Watkins,F,SBD,FR-C,63,Raw,1998,,KS,62.1,110,115,120,120,65,70,-72.5,70,120,125,127.5,127.5,317.5,
14,Regina Akrong-Lamptey,F,SBD,FR-C,63,Raw,2002,The Ohio State University,OH,61.8,97.5,105,110,110,50,52.5,57.5,57.5,122.5,132.5,140,140,307.5,2002-11-02
15,Kirsten Malone,F,SBD,FR-C,63,Raw,2001,,LA,62.4,95,107.5,110,110,-70,70,-75,70,100,112.5,122.5,122.5,302.5,
16,Sara DuBose,F,SBD,FR-C,63,Raw,2001,,LA,57.8,-105,105,110,110,-60,62.5,-67.5,62.5,117.5,127.5,-130,127.5,300,
17,Alora Mouyard,F,SBD,FR-C,63,Raw,1998,McKendree University Powerlifting,IL,61.4,105,-112.5,-112.5,105,62.5,65,-67.5,65,130,-140,-140,130,300,
18,Jessica Cluck-Keeney,F,SBD,FR-C,63,Raw,2002,,TX,61.3,110,-115,-115,110,50,52.5,-57.5,52.5,125,130,132.5,132.5,295,
19,Andrea Thi-Streety,F,SBD,FR-C,63,Raw,1997,,TX,63,97.5,105,-110,105,47.5,52.5,-55,52.5,117.5,125,137.5,137.5,295,
20,T'Kyra Allen,F,SBD,FR-C,63,Raw,2001,Missouri Valley Vikings,MO,57.3,95,100,105,105,60,65,-72.5,65,102.5,110,115,115,285,
1,Christiane Hazzard,F,SBD,FR-C,69,Raw,1999,The Ohio State University,OH,63.3,140,150,155.5,155.5,97.5,102.5,108,108,160,-172.5,-172.5,160,423.5,
2,Ally Carraway,F,SBD,FR-C,69,Raw,2001,Midland University,TX,67.5,142.5,150.5,-153,150.5,75,80,82.5,82.5,145,155,162.5,162.5,395.5,
4,Tessa Willis,F,SBD,FR-C,69,Raw,1996,,TX,67.4,130,135,142.5,142.5,50,57.5,62.5,62.5,170,182.5,-190,182.5,387.5,
3,Caleigh Holland,F,SBD,FR-C,69,Raw,1998,,NJ,67.4,140,-150,-157.5,140,62.5,67.5,-70,67.5,165,175,180,180,387.5,
5,Catherine Widay,F,SBD,FR-C,69,Raw,2000,The Ohio State University,OH,68.4,125,135,142.5,142.5,77.5,82.5,-87.5,82.5,142.5,155,160,160,385,
6,Alexis Birkett,F,SBD,FR-C,69,Raw,2000,UW - Madison,WI,68.8,132.5,140,145,145,78,85,-90,85,135,142.5,147.5,147.5,377.5,
7,Molly Mickelson,F,SBD,FR-C,69,Raw,1997,,IL,68.6,122.5,130,-137.5,130,77.5,82.5,-87.5,82.5,145,152.5,157.5,157.5,370,
8,Farah Abuhantash,F,SBD,FR-C,69,Raw,2000,,TX,66.5,117.5,122.5,127.5,127.5,72.5,77.5,82.5,82.5,140,150,-155,150,360,
9,Mary Trabue,F,SBD,FR-C,69,Raw,1999,The Ohio State University,OH,67.2,115,125,-132.5,125,70,75,80,80,132.5,142.5,152.5,152.5,357.5,
10,Loryn Wright,F,SBD,FR-C,69,Raw,2001,The Ohio State University,OH,67.5,115,122.5,132.5,132.5,62.5,67.5,72.5,72.5,-132.5,132.5,150,150,355,
11,Kyra Inston,F,SBD,FR-C,69,Raw,2000,,CT,68.2,117.5,127.5,132.5,132.5,52.5,57.5,60,60,140,147.5,155,155,347.5,
12,Marissa Olvera,F,SBD,FR-C,69,Raw,2001,Midland University,TX,64.1,115,120,125,125,67.5,72.5,75,75,132.5,140,145,145,345,
13,Jade Andresen,F,SBD,FR-C,69,Raw,2001,Midland University,NE,68.3,115,122.5,-127.5,122.5,75,80,-82.5,80,115,125,130,130,332.5,
14,D'Kyra Allen,F,SBD,FR-C,69,Raw,2001,Missouri Valley Vikings,MO,67.8,110,115,120,120,75,80,-85,80,115,125,-130,125,325,
15,Lydia Cottle,F,SBD,FR-C,69,Raw,2002,,OK,68.1,112.5,-125,125,125,55,-60,60,60,115,125,-132.5,125,310,
16,Kadynn Germain,F,SBD,FR-C,69,Raw,2002,,LA,65.6,100,105,110,110,55,60,-62.5,60,120,130,132.5,132.5,302.5,
17,Haileigh Marcon,F,SBD,FR-C,69,Raw,2000,,KS,67.1,97.5,102.5,-107.5,102.5,57.5,-62.5,-62.5,57.5,125,132.5,142.5,142.5,302.5,
18,Jamie Scott,F,SBD,FR-C,69,Raw,2001,Missouri Valley Vikings,MO,66.1,95,100,-102.5,100,62.5,65,-67.5,65,-130,130,-140,130,295,
1,Kloie Doublin,F,SBD,FR-C,76,Raw,1999,Midland University,IN,75.4,-170,170,-180.5,170,107.5,115,120.5,120.5,192.5,207.5,-210.5,207.5,498,
2,Maria Dailey,F,SBD,FR-C,76,Raw,2002,Midland University,WA,72.9,165,175,-181,175,85,90,95,95,195,210,220,220,490,
3,Olivia Guidone,F,SBD,FR-C,76,Raw,1998,,NC,72.6,142.5,150,155,155,92.5,97.5,102.5,102.5,167.5,180,190,190,447.5,
4,Xochitl Montes,F,SBD,FR-C,76,Raw,1996,,TX,75.5,135,140,-145,140,77.5,80,82.5,82.5,165,175,182.5,182.5,405,
5,Stella Pearson,F,SBD,FR-C,76,Raw,1997,,TX,75.5,137.5,147.5,-152.5,147.5,70,77.5,82.5,82.5,155,165,170,170,400,
6,Autumn Osgood,F,SBD,FR-C,76,Raw,1994,,VT,74,-130,135,142.5,142.5,75,80,85,85,157.5,170,-177.5,170,397.5,
7,Britney George,F,SBD,FR-C,76,Raw,2000,,TX,74.9,155,-165,-165,155,72.5,77.5,82.5,82.5,140,150,155,155,392.5,
8,Renee Sahli,F,SBD,FR-C,76,Raw,1999,,TX,75.2,135,142.5,-150,142.5,62.5,67.5,70,70,165,175,180,180,392.5,
9,Emily Begovich,F,SBD,FR-C,76,Raw,1999,,FL,75.3,120,130,135,135,60,65,-70,65,155,167.5,177.5,177.5,377.5,
10,Jaileigh Sorgenfrei,F,SBD,FR-C,76,Raw,2002,Midland University,NE,73.5,125,130,132.5,132.5,60,65,70,70,150,160,165,165,367.5,
11,Briane Johnson,F,SBD,FR-C,76,Raw,1998,,TX,73.8,115,125,127.5,127.5,60,65,67.5,67.5,145,162.5,167.5,167.5,362.5,
12,Cindy Vazquez,F,SBD,FR-C,76,Raw,1998,,CA,74,110,120,127.5,127.5,67.5,75,-80,75,132.5,142.5,150,150,352.5,
13,Katherine Murashkina,F,SBD,FR-C,76,Raw,2001,,FL,76,135,140,-145,140,72.5,75,-77.5,75,130,135,-142.5,135,350,
14,Madeline Welch,F,SBD,FR-C,76,Raw,1999,,TN,74.8,105,-120,-120,105,62.5,67.5,-70,67.5,145,155,165,165,337.5,
15,Brenna Zuehlke,F,SBD,FR-C,76,Raw,2000,,MN,72.6,110,115,120,120,57.5,62.5,67.5,67.5,120,127.5,137.5,137.5,325,
16,Jessica McCain,F,SBD,FR-C,76,Raw,1998,,NE,75.2,125,130,-137.5,130,65,70,72.5,72.5,112.5,117.5,122.5,122.5,325,
17,Sarah Fisher,F,SBD,FR-C,76,Raw,1999,,TX,72.8,95,102.5,-112.5,102.5,72.5,80,-82.5,80,112.5,120,127.5,127.5,310,
18,Michaela Smith #2,F,SBD,FR-C,76,Raw,2001,,PA,74.4,102.5,112.5,-117.5,112.5,47.5,52.5,57.5,57.5,125,132.5,140,140,310,
19,Jordan Raudins,F,SBD,FR-C,76,Raw,2002,The Ohio State University,OH,75.9,97.5,105,115,115,-47.5,50,55,55,117.5,130,140,140,310,
20,Jeni Laha,F,SBD,FR-C,76,Raw,2000,,KS,74.2,110,-120,-120,110,52.5,57.5,-60,57.5,120,132.5,140,140,307.5,
21,Lauren McCall,F,SBD,FR-C,76,Raw,1997,,CO,72.4,110,-117.5,-120,110,65,-70,70,70,110,117.5,125,125,305,
22,Mackenzie Glasse,F,SBD,FR-C,76,Raw,1999,,KS,69.5,85,92.5,97.5,97.5,60,-65,65,65,130,-137.5,137.5,137.5,300,
23,Melanie Steinberger,F,SBD,FR-C,76,Raw,2001,The Ohio State University,OH,71.1,-95,95,110,110,50,55,60,60,102.5,112.5,117.5,117.5,287.5,
24,Meghan McCaslin,F,SBD,FR-C,76,Raw,2000,The Ohio State University,OH,74.1,102.5,110,117.5,117.5,50,52.5,-60,52.5,97.5,105,110,110,280,
25,Kylie VanEck,F,SBD,FR-C,76,Raw,1997,,OK,75.5,100,105,-110,105,47.5,52.5,-55,52.5,115,120,-125,120,277.5,
DQ,Katherine Latter,F,SBD,FR-C,76,Raw,1999,,NY,75.4,-145,-147.5,-150,,67.5,72.5,-77.5,72.5,157.5,172.5,-182.5,172.5,,
1,Natalie Richardson,F,SBD,FR-C,84,Raw,1999,,SD,82.3,170,176,182.5,182.5,117.5,122.5,125,125,175,187.5,192.5,192.5,500,
2,Jessica Kinney,F,SBD,FR-C,84,Raw,2000,UW - Madison,WI,79.2,165,175,-181,175,97.5,102.5,105,105,190,197.5,202.5,202.5,482.5,
3,Antara Jackson,F,SBD,FR-C,84,Raw,2001,,NY,82.9,152.5,160,162.5,162.5,95,102.5,110,110,190,202.5,-205,202.5,475,
4,Elisha Pager,F,SBD,FR-C,84,Raw,1996,,FL,80.6,155,162.5,-167.5,162.5,90,92.5,95,95,175,185,-197.5,185,442.5,
5,Fre'Dasia Daniels,F,SBD,FR-C,84,Raw,1998,,TX,78.8,145,155,-162.5,155,72.5,80,-87.5,80,185,192.5,-200,192.5,427.5,
6,Rees Dunn,F,SBD,FR-C,84,Raw,2000,,LA,81.2,132.5,140,142.5,142.5,82.5,87.5,-92.5,87.5,162.5,172.5,175,175,405,
7,Morgan Gilliam,F,SBD,FR-C,84,Raw,2000,Midland University,MI,83.3,147.5,155,162.5,162.5,75,80,-85,80,145,155,-162.5,155,397.5,
8,Reyven McDonald,F,SBD,FR-C,84,Raw,2001,Missouri Valley Vikings,MO,81.9,152.5,-157.5,-157.5,152.5,70,72.5,,72.5,152.5,162.5,-167.5,162.5,387.5,
9,Patricia McAllister,F,SBD,FR-C,84,Raw,1996,,CT,81.5,145,155,162.5,162.5,65,-70,70,70,152.5,,,152.5,385,
10,Kailynn McComas,F,SBD,FR-C,84,Raw,1998,,OH,82.5,-122.5,122.5,130,130,80,87.5,-92.5,87.5,150,165,-177.5,165,382.5,
11,Alison David,F,SBD,FR-C,84,Raw,2002,,NJ,82.9,-125,125,-140,125,67.5,72.5,75,75,155,167.5,180,180,380,
12,Abbie Perault,F,SBD,FR-C,84,Raw,1999,,NE,83.8,160,165,-170,165,60,65,67.5,67.5,137.5,142.5,145,145,377.5,
13,Madison Rivero,F,SBD,FR-C,84,Raw,1999,The Ohio State University,VA,83.3,135,-142.5,-142.5,135,72.5,77.5,-82.5,77.5,147.5,152.5,160,160,372.5,
14,Destiny Ann Chadwick,F,SBD,FR-C,84,Raw,2000,,KS,83.8,145,-150,-155,145,-57.5,62.5,-65,62.5,142.5,150,-155,150,357.5,
15,Abigail Davis,F,SBD,FR-C,84,Raw,2000,Arizona State Powerlifting,AZ,83.6,120,127.5,-132.5,127.5,75,80,-85,80,135,145,-165,145,352.5,
16,Samantha Josephson,F,SBD,FR-C,84,Raw,1998,,NE,79.9,117.5,122.5,130,130,65,70,75,75,125,132.5,142.5,142.5,347.5,
17,Rachel Rheam,F,SBD,FR-C,84,Raw,2000,,PA,82.2,115,122.5,130,130,62.5,65,-75,65,135,145,150,150,345,
18,Macy Davis,F,SBD,FR-C,84,Raw,2001,,TX,81.8,115,125,-140,125,65,-80,-80,65,145,-152.5,152.5,152.5,342.5,
19,Yesenia Arellano,F,SBD,FR-C,84,Raw,2002,,KS,82,125,-135,137.5,137.5,52.5,57.5,-62.5,57.5,125,135,140,140,335,
20,Katie Martin,F,SBD,FR-C,84,Raw,1999,,KS,77.8,130,135,-140,135,60,-67.5,-67.5,60,125,-130,-130,125,320,
21,Talia Hutchings,F,SBD,FR-C,84,Raw,2000,Missouri Valley Vikings,MO,81,-125,125,-130,125,55,60,-65,60,127.5,132.5,-140,132.5,317.5,
22,Anna Summers,F,SBD,FR-C,84,Raw,1999,Missouri Valley Vikings,MO,79.4,105,110,-115,110,65,70,-72.5,70,125,132.5,-137.5,132.5,312.5,
23,Mikayla Harper,F,SBD,FR-C,84,Raw,2001,,KS,82,100,105,110,110,35,42.5,-45,42.5,122.5,130,135,135,287.5,
DQ,Allison Nally,F,SBD,FR-C,84,Raw,2001,Missouri Valley Vikings,MO,82.2,-170,-170,-170,,72.5,77.5,-82.5,77.5,150,-160,-160,150,,
1,Alexis Jones #1,F,SBD,FR-C,84+,Raw,2000,Midland University,FL,147.5,207.5,217.5,227.5,227.5,135,145,150.5,150.5,175,200,-215,200,578,
2,Brenda Sanchez,F,SBD,FR-C,84+,Raw,1999,,TX,123.1,217.5,232.5,237.5,237.5,90,95,97.5,97.5,190,200,207.5,207.5,542.5,
3,Makenna Henderson,F,SBD,FR-C,84+,Raw,2000,Midland University,TX,102,200,212.5,220,220,102.5,110,115,115,167.5,175,-182.5,175,510,
4,Lindsay Dziedzic,F,SBD,FR-C,84+,Raw,1999,,NY,122.7,200,215,-222.5,215,80,85,87.5,87.5,172.5,185,197.5,197.5,500,
5,Bryanna Houser,F,SBD,FR-C,84+,Raw,1999,,TX,119.2,177.5,185,192.5,192.5,87.5,95,-97.5,95,180,192.5,-212.5,192.5,480,
6,Abbie Leschinsky,F,SBD,FR-C,84+,Raw,1997,,NE,106.3,157.5,165,167.5,167.5,97.5,102.5,107.5,107.5,175,185,192.5,192.5,467.5,
7,Jaqui Carey,F,SBD,FR-C,84+,Raw,2000,,KS,132.2,200,207.5,220,220,80,-87.5,-87.5,80,-150,160,-167.5,160,460,
8,Brooke Conley,F,SBD,FR-C,84+,Raw,1997,The Ohio State University,OH,108.4,160,172.5,182.5,182.5,82.5,87.5,-92.5,87.5,150,160,170,170,440,
9,Andrea Beasley,F,SBD,FR-C,84+,Raw,2001,,TX,134.5,182.5,-192.5,-192.5,182.5,85,90,-97.5,90,147.5,160,-170,160,432.5,
10,Lauren Bates,F,SBD,FR-C,84+,Raw,2001,Missouri Valley Vikings,MO,124.2,165,-172.5,172.5,172.5,75,82.5,-85,82.5,157.5,167.5,175,175,430,
11,Sophia Bales,F,SBD,FR-C,84+,Raw,2000,Missouri Valley Vikings,MO,122.1,162.5,170,172.5,172.5,67.5,72.5,75,75,180,-190,-190,180,427.5,
12,Emma Hampton,F,SBD,FR-C,84+,Raw,2002,Midland University,MO,122.5,160,-167.5,175,175,67.5,72.5,75,75,165,175,-182.5,175,425,
13,Kylie Matticks,F,SBD,FR-C,84+,Raw,2000,,TX,125.8,150,165,175,175,75,80,85,85,-147.5,-160,160,160,420,
14,Harley Lang,F,SBD,FR-C,84+,Raw,2001,,KS,112.8,-147.5,150,-157.5,150,92.5,-97.5,-97.5,92.5,125,130,137.5,137.5,380,
15,Natalie Stewart,F,SBD,FR-C,84+,Raw,2001,,LA,118.5,135,-145,145,145,70,80,-85,80,135,145,155,155,380,
16,Morgan Worley,F,SBD,FR-C,84+,Raw,1998,,OK,86.6,142.5,-147.5,-147.5,142.5,52.5,57.5,-60,57.5,-140,140,-142.5,140,340,
DQ,Destiny Wilson,F,SBD,FR-C,84+,Raw,2001,,FL,124.3,92.5,100,107.5,107.5,-82.5,-82.5,-82.5,,137.5,140,142.5,142.5,,
1,Quynh-Anh Nguyen,F,SBD,FR-Jr,52,Raw,1999,,TX,52,127.5,135,140,140,57.5,60,62.5,62.5,147.5,155,157.5,157.5,360,
2,Lorraine Luna,F,SBD,FR-Jr,52,Raw,1997,,CA,52,120,125,127.5,127.5,67.5,-72.5,72.5,72.5,145,152.5,157.5,157.5,357.5,
3,Lin Tran,F,SBD,FR-Jr,52,Raw,1998,,TX,50.5,127.5,135,-140,135,65,67.5,70,70,130,137.5,-142.5,137.5,342.5,
DQ,Samantha Shinavier,F,SBD,FR-Jr,52,Raw,1998,,MI,51.6,-130,132.5,-137.5,132.5,-80,-82.5,-82.5,,147.5,-152.5,,147.5,,
1,Celine Crum,F,SBD,FR-Jr,57,Raw,1998,,SC,56.7,150,160,165,165,92.5,-97.5,97.5,97.5,175,185,192.5,192.5,455,
2,Frida De La Peña Lopez,F,SBD,FR-Jr,57,Raw,1997,,TX,56.5,135,140,142.5,142.5,87.5,92.5,-95,92.5,175,182.5,-187.5,182.5,417.5,
3,Maya Wright,F,SBD,FR-Jr,57,Raw,1997,,NY,55.4,155,-162,-162.5,155,85,87.5,-90,87.5,155,165,-175,165,407.5,
4,Semra Memedovski,F,SBD,FR-Jr,57,Raw,1998,,IL,55.5,132.5,142.5,147.5,147.5,75,-80,80,80,145,157.5,-165,157.5,385,
5,Abigayle Race,F,SBD,FR-Jr,57,Raw,1997,,IL,56.8,130,135,-137.5,135,77.5,80,-82.5,80,150,157.5,-162.5,157.5,372.5,
1,Jeeraphan Suwannawisut,F,SBD,FR-Jr,63,Raw,1998,,NJ,63,-130,137.5,-145,137.5,95,-100,100,100,155,165,-175,165,402.5,
1,Cassandra Carlton,F,SBD,FR-Jr,69,Raw,1999,,TX,68.7,170,177.5,182.5,182.5,107.5,112.5,-115,112.5,167.5,177.5,187.5,187.5,482.5,
1,Shannon Carr,F,SBD,FR-Jr,76,Raw,1998,,NY,74.8,157.5,-165,165,165,82.5,87.5,90,90,170,175,-180,175,430,
2,Sydney Cunfer,F,SBD,FR-Jr,76,Raw,1997,,CO,75,150,-157.5,-157.5,150,75,80,82.5,82.5,165,175,182.5,182.5,415,
3,Whitney Weidenborner,F,SBD,FR-Jr,76,Raw,1998,,WY,74.2,142.5,152.5,-157.5,152.5,85,92.5,-95,92.5,150,165,-170,165,410,
DQ,Katherine Latter,F,SBD,FR-Jr,76,Raw,1999,,NY,75.4,-145,-147.5,-150,,67.5,72.5,-77.5,72.5,157.5,172.5,-182.5,172.5,,
1,Jessica Kinney,F,SBD,FR-Jr,84,Raw,2000,UW - Madison,WI,79.2,165,175,-181,175,97.5,102.5,105,105,190,197.5,202.5,202.5,482.5,
2,Antara Jackson,F,SBD,FR-Jr,84,Raw,2001,,NY,82.9,152.5,160,162.5,162.5,95,102.5,110,110,190,202.5,-205,202.5,475,
1,Shelby Miles,F,SBD,FR-Jr,84+,Raw,1998,,IN,89.4,177.5,-187.5,187.5,187.5,117.5,125,-130,125,200,215,-220,215,527.5,
DQ,Amanda Peterson,F,SBD,FR-Jr,84+,Raw,1999,,IL,84.6,-150,-167.5,-167.5,,-80,,,,-165,,,,,
1,Kennith Moore,M,SBD,M-C,53,Single-ply,2001,Blue Mountain College,MS,51.8,145,-155,155,155,85,-92.5,-92.5,85,175,182.5,-187.5,182.5,422.5,
2,Cameron Fileccia,M,SBD,M-C,53,Single-ply,2001,Blue Mountain College,LA,52.2,130,-147.5,147.5,147.5,80,-82.5,-82.5,80,-172.5,-172.5,172.5,172.5,400,
1,Charles Shuford,M,SBD,M-C,59,Single-ply,2002,Midland University,LA,58.8,235,247.5,256,256,150,157.5,162.5,162.5,235,250,259,259,677.5,
2,Cordarius Harris,M,SBD,M-C,59,Single-ply,2000,Blue Mountain College,MS,57.5,220,227.5,232.5,232.5,130,137.5,-142.5,137.5,227.5,237.5,242.5,242.5,612.5,
3,Kain Gala,M,SBD,M-C,59,Single-ply,2002,Texas A&M,TX,57.7,-210,-210,210,210,135,142.5,150,150,185,200,-207.5,200,560,
1,Jordan Wilkerson,M,SBD,M-C,66,Single-ply,2002,Midland University,TX,65.1,240,250,-255,250,125,140,150,150,240,257.5,-267.5,257.5,657.5,
2,Roberto Saenz,M,SBD,M-C,66,Single-ply,2000,Midland University,TX,62.3,-235,-235,235,235,150,-157.5,157.5,157.5,235,-250,-265,235,627.5,
3,Joshua Valenzuela,M,SBD,M-C,66,Single-ply,2001,,TX,64.8,207.5,-215,215,215,130,-137.5,-137.5,130,210,-217.5,-217.5,210,555,
4,Jake Hebert,M,SBD,M-C,66,Single-ply,1998,,LA,65.7,200,207.5,-215,207.5,140,145,,145,187.5,197.5,-205,197.5,550,
5,Khoa Bui,M,SBD,M-C,66,Single-ply,1997,,LA,64.8,-200,200,-215,200,122.5,-137.5,-137.5,122.5,202.5,210,-235,210,532.5,
6,Jonathan Vidrine,M,SBD,M-C,66,Single-ply,2001,,LA,65.6,-175,175,190,190,125,137.5,150,150,165,175,187.5,187.5,527.5,
7,Kadarius Smith,M,SBD,M-C,66,Single-ply,2002,Blue Mountain College,MS,64.6,170,185,-190,185,-95,95,100,100,185,197.5,-212.5,197.5,482.5,
8,Zack Giles,M,SBD,M-C,66,Single-ply,2001,,LA,63.9,-142.5,142.5,-152.5,142.5,105,-110,-110,105,167.5,180,-195,180,427.5,
1,Beau Dukes,M,SBD,M-C,74,Single-ply,2000,,MS,73.6,210,222.5,230,230,135,142.5,145,145,252.5,267.5,275,275,650,
2,Jackson Jaeger,M,SBD,M-C,74,Single-ply,2001,Midland University,WI,73.7,230,-240,240,240,130,135,145,145,225,235,245,245,630,
3,John Le,M,SBD,M-C,74,Single-ply,1998,UW - Madison,WI,73.9,202.5,215,225,225,135,137.5,140,140,230,245,252.5,252.5,617.5,
4,Jase Zachary,M,SBD,M-C,74,Single-ply,2001,Blue Mountain College,LA,71.9,215,225,-237.5,225,122.5,135,-137.5,135,220,232.5,-250,232.5,592.5,
5,Bobby Robinson,M,SBD,M-C,74,Single-ply,2001,,LA,73,210,215,-222.5,215,147.5,155,160,160,192.5,207.5,210,210,585,
6,Nick Pridmore,M,SBD,M-C,74,Single-ply,2001,Blue Mountain College,MS,70,217.5,227.5,-235,227.5,82.5,105,112.5,112.5,217.5,227.5,-245,227.5,567.5,
7,Jesus Rosillo III,M,SBD,M-C,74,Single-ply,1999,Sam Houston State University Powerlifting,TX,72.1,205,215,222.5,222.5,-110,110,115,115,205,-217.5,217.5,217.5,555,
8,Logan Rogers,M,SBD,M-C,74,Single-ply,2000,,TX,68.7,-165,165,-187.5,165,-120,122.5,-135,122.5,212.5,227.5,-232.5,227.5,515,
DQ,Parker Hay,M,SBD,M-C,74,Single-ply,1999,Texas A&M,TX,73.3,-260,260,277.5,277.5,-157.5,-157.5,-157.5,,227.5,240,-250,240,,
DQ,Damon Scott,M,SBD,M-C,74,Single-ply,1998,,LA,74,-250,-250,-250,,135,145,-160,145,227.5,-232.5,232.5,232.5,,
1,Austin Perkins #1,M,SBD,M-C,83,Single-ply,1999,Midland University,MS,74.1,330,-350,-350,330,160,170,175,175,285,300,-310.5,300,805,
2,Michael Vargas,M,SBD,M-C,83,Single-ply,1996,,TX,82.5,305,-320,320,320,197.5,210,-220,210,262.5,275,-287.5,275,805,
3,Kevin Linton,M,SBD,M-C,83,Single-ply,2001,,LA,81.9,255,270,280,280,150,162.5,-170,162.5,245,260,-270,260,702.5,
4,Andrew Ritz,M,SBD,M-C,83,Single-ply,2000,Texas A&M,TX,77.1,240,-247.5,247.5,247.5,-140,145,-150,145,220,-237.5,237.5,237.5,630,
5,Connor Ernst,M,SBD,M-C,83,Single-ply,2000,,MN,80.2,195,207.5,215,215,167.5,172.5,177.5,177.5,220,230,237.5,237.5,630,
6,Tristan Bigler,M,SBD,M-C,83,Single-ply,1997,Sam Houston State University Powerlifting,TX,82.2,-200,200,-210,200,142.5,150,155,155,237.5,-247.5,-247.5,237.5,592.5,
7,John Harkins,M,SBD,M-C,83,Single-ply,1999,Texas A&M,TX,80.7,227.5,-232.5,232.5,232.5,-142.5,-142.5,142.5,142.5,215,-235,-235,215,590,
8,Charles Kellum,M,SBD,M-C,83,Single-ply,1999,,LA,80.1,190,197.5,205,205,150,157.5,162.5,162.5,200,207.5,-225,207.5,575,
9,Andrew Ardoin,M,SBD,M-C,83,Single-ply,1999,,LA,81.6,190,197.5,-205,197.5,155,160,-165,160,185,190,200,200,557.5,
1,Noah Johnson,M,SBD,M-C,93,Single-ply,2000,,WI,91.8,335,360,-370,360,195,210,220,220,310,-335,335,335,915,
2,Rob Escalante,M,SBD,M-C,93,Single-ply,1997,Texas A&M,TX,85.3,265,275,285,285,170,175,200,200,230,240,260,260,745,
3,Addison Gaspard,M,SBD,M-C,93,Single-ply,2001,,LA,91.3,245,260,272.5,272.5,155,162.5,167.5,167.5,250,260,-305,260,700,
4,Benjamin Rivers,M,SBD,M-C,93,Single-ply,2000,Blue Mountain College,MS,91.2,235,-245,-245,235,162.5,172.5,177.5,177.5,222.5,232.5,252.5,252.5,665,
5,David Blackburn,M,SBD,M-C,93,Single-ply,2000,Texas A&M,TX,92.8,265,272.5,-280,272.5,115,155,160,160,217.5,232.5,-237.5,232.5,665,
6,Elijah Harris,M,SBD,M-C,93,Single-ply,2000,Blue Mountain College,LA,91.4,242.5,255,-270,255,137.5,145,152.5,152.5,242.5,-257.5,-257.5,242.5,650,
7,Peter Chavez,M,SBD,M-C,93,Single-ply,2001,Midland University,TX,91.1,225,237.5,250,250,145,150,152.5,152.5,235,245,-250,245,647.5,
8,Joel Plaisance,M,SBD,M-C,93,Single-ply,2002,,LA,86.3,227.5,235,-247.5,235,165,-172.5,-172.5,165,-225,225,237.5,237.5,637.5,
9,Sam Quinn,M,SBD,M-C,93,Single-ply,2001,,LA,91.4,247.5,-255,-255,247.5,140,-145,-145,140,250,-255,-262.5,250,637.5,
10,Brody White,M,SBD,M-C,93,Single-ply,1999,,AL,90.5,200,215,230,230,-127.5,127.5,132.5,132.5,235,245,-255,245,607.5,
11,Ricky Zheng,M,SBD,M-C,93,Single-ply,2000,,IL,84.4,182.5,192.5,195,195,127.5,-135,-135,127.5,215,-227.5,227.5,227.5,550,
DQ,Devin Kumar,M,SBD,M-C,93,Single-ply,1997,,GA,90.7,-242.5,242.5,-255,242.5,-195,-197.5,-197.5,,-250,-250,250,250,,
1,Dalton Richardson,M,SBD,M-C,105,Single-ply,1999,Texas A&M,TX,101.1,350,365.5,375.5,375.5,200,210,215,215,300,-317.5,-330,300,890.5,
2,Garrett Parkhill,M,SBD,M-C,105,Single-ply,1998,Midland University,TX,101.2,-325,325,345,345,230,-237.5,237.5,237.5,272.5,285,295,295,877.5,
3,Preston Savoy Jr,M,SBD,M-C,105,Single-ply,1997,,LA,95.5,310,-322.5,-322.5,310,240,247.5,-252.5,247.5,270,297.5,-320,297.5,855,
4,Alex Rushing,M,SBD,M-C,105,Single-ply,1999,,LA,104,275,285,300,300,230,-240,240,240,260,265,275,275,815,
5,Jalen Davenport,M,SBD,M-C,105,Single-ply,2002,Blue Mountain College,MS,102.8,-332.5,-332.5,332.5,332.5,175,182.5,192.5,192.5,267.5,-270,-270,267.5,792.5,
6,Jessie Badeaux,M,SBD,M-C,105,Single-ply,1999,,LA,99.5,-290,290,,290,215,-220,220,220,237.5,247.5,-252.5,247.5,757.5,
7,Leo Montanez,M,SBD,M-C,105,Single-ply,2002,,LA,103.7,235,245,-252.5,245,155,160,165,165,230,247.5,250,250,660,
8,Michael Morel,M,SBD,M-C,105,Single-ply,1999,,LA,101.5,210,230,-255,230,170,-180,180,180,210,227.5,-247.5,227.5,637.5,
9,Nhan Nguyen,M,SBD,M-C,105,Single-ply,1995,,LA,104.8,210,217.5,-230,217.5,162.5,170,177.5,177.5,230,242.5,-252.5,242.5,637.5,
10,Dalton Staller,M,SBD,M-C,105,Single-ply,1998,Midland University,WI,100.8,-250,250,-260,250,152.5,-157.5,-160,152.5,195,207.5,-217.5,207.5,610,
11,Parker Bretz,M,SBD,M-C,105,Single-ply,1999,Sam Houston State University Powerlifting,TX,103.7,215,222.5,227.5,227.5,130,140,150,150,215,225,-235,225,602.5,
DQ,Xavian Herod,M,SBD,M-C,105,Single-ply,2000,Blue Mountain College,MS,103.1,-322.5,-322.5,-322.5,,125,140,147.5,147.5,67.5,272.5,317.5,317.5,,
DQ,Joshua Ball,M,SBD,M-C,105,Single-ply,2001,,LA,103.5,-280,-280,-280,,-110,,,,,,,,,
DQ,Brant Kobersky,M,SBD,M-C,105,Single-ply,1998,Sam Houston State University Powerlifting,TX,103.7,-310,-310,-310,,205,212.5,-227.5,212.5,265,280,-285,280,,
1,Dakoda Trull,M,SBD,M-C,120,Single-ply,2000,,TX,118.4,370,380,-390,380,227.5,232.5,-242.5,232.5,280,290,300,300,912.5,
2,Jaime Rios #3,M,SBD,M-C,120,Single-ply,2001,Midland University,TX,105.9,305,325,-335,325,182.5,192.5,197.5,197.5,240,255,265,265,787.5,
3,Caden Garrett,M,SBD,M-C,120,Single-ply,1997,,AL,110.2,292.5,302.5,-312.5,302.5,182.5,-190,-190,182.5,262.5,-280,280,280,765,
4,Joseph Bueno,M,SBD,M-C,120,Single-ply,2001,Midland University,TX,106,-282.5,282.5,295,295,170,177.5,187.5,187.5,235,255,265,265,747.5,
5,Josh Norton,M,SBD,M-C,120,Single-ply,2000,,TN,116,250,270,295,295,180,192.5,-210,192.5,225,240,-267.5,240,727.5,
6,Caleb Stephens,M,SBD,M-C,120,Single-ply,1999,Blue Mountain College,MS,118.9,-262.5,-262.5,262.5,262.5,147.5,152.5,157.5,157.5,235,240,245,245,665,
7,Bryce Meche,M,SBD,M-C,120,Single-ply,1999,,LA,117.9,245,252.5,-260,252.5,155,167.5,182.5,182.5,175,182.5,205,205,640,
8,Joaquin Garza,M,SBD,M-C,120,Single-ply,1999,SHSU,TX,116.9,-215,-215,215,215,147.5,-160,160,160,205,215,227.5,227.5,602.5,
1,Carter Wheat,M,SBD,M-C,120+,Single-ply,1998,Texas A&M,TX,166.6,382.5,-400,-418,382.5,265,272.5,-280,272.5,275,305,-322.5,305,960,
2,Corbyn Belgard,M,SBD,M-C,120+,Single-ply,2000,,LA,154.2,300,-312.5,-312.5,300,217.5,-225,225,225,250,272.5,297.5,297.5,822.5,
3,Luke Mellon,M,SBD,M-C,120+,Single-ply,2000,Midland University,AZ,171,-340,-345,345,345,-180,180,202.5,202.5,250,-265,275,275,822.5,
4,Francisco Uhl,M,SBD,M-C,120+,Single-ply,1999,Midland University,TX,124.3,-235,235,-255,235,-180,180,205,205,-260,260,-265,260,700,
5,Nicholas Bowman,M,SBD,M-C,120+,Single-ply,2001,,LA,141.2,287.5,-302.5,-302.5,287.5,-160,162.5,-170,162.5,207.5,225,-230,225,675,
6,Joshua Taylor,M,SBD,M-C,120+,Single-ply,2000,Blue Mountain College,MS,138.4,262.5,272.5,292.5,292.5,142.5,150,-160,150,220,222.5,230,230,672.5,
DQ,Kenneth Smith #1,M,SBD,M-C,120+,Single-ply,2000,Midland University,MN,133.2,335,350,-365,350,-245,-250,-250,,245,260,-272.5,260,,
DQ,Caleb Rankin,M,SBD,M-C,120+,Single-ply,2000,Blue Mountain College,MS,138.2,-345,-345,-345,,-180,-180,-180,,-317.5,-317.5,,,,
1,Christopher Medina Jr,M,SBD,M-Jr,53,Single-ply,2001,,TX,52.2,-177.5,177.5,-192.5,177.5,90,97.5,102.5,102.5,182.5,190,195,195,475,
1,Jaylen Montgomery,M,SBD,M-Jr,66,Single-ply,1999,,TX,63.7,190,197.5,-205,197.5,87.5,105,-110,105,182.5,192.5,-205,192.5,495,
1,Adrian Sustaita,M,SBD,M-Jr,93,Single-ply,1998,,TX,92.6,310,-320,-320,310,-175,175,-182.5,175,270,280,-290,280,765,
DQ,Obed Hernandez,M,SBD,M-Jr,93,Single-ply,2001,,TX,92.2,-330,330,340,340,235,240,245,245,285,-297.5,297.5,297.5,,
1,Raul Aguilera,M,SBD,M-Jr,105,Single-ply,1997,,TX,103.8,-265,277.5,-300,277.5,-190,192.5,202.5,202.5,255,-272.5,-272.5,255,735,
2,Dalton Staller,M,SBD,M-Jr,105,Single-ply,1998,Midland University,WI,100.8,-250,250,-260,250,152.5,-157.5,-160,152.5,195,207.5,-217.5,207.5,610,
DQ,Michael Khalil,M,SBD,M-Jr,120+,Single-ply,1997,,MA,161.4,-300,-315,-315,,-175,-175,-175,,-275,-275,-275,,,
DQ,Devin Kumar,M,SBD,M-O,93,Single-ply,1997,,GA,90.7,-242.5,242.5,-255,242.5,-195,-197.5,-197.5,,-250,-250,250,250,,
1,Aidan Cusack,M,SBD,MR-C,53,Raw,2001,Midland University,TX,52.5,130,140,145,145,80,85,90,90,165,172.5,182.5,182.5,417.5,
2,Brian Nguyen,M,SBD,MR-C,53,Raw,1999,,TX,52.2,-132.5,-132.5,132.5,132.5,82.5,87.5,95,95,167.5,177.5,-190,177.5,405,
3,Alec Anthony DeJesus,M,SBD,MR-C,53,Raw,1995,,IL,50.8,130,-140,-140,130,75,80,-85,80,157.5,162.5,167.5,167.5,377.5,
4,Vu Le,M,SBD,MR-C,53,Raw,2000,,WA,51.6,-122.5,122.5,135,135,82.5,87.5,-90,87.5,140,150,-152.5,150,372.5,
1,Emmet Metzger,M,SBD,MR-C,59,Raw,1997,McKendree University Powerlifting,IL,58.6,-185,185,-192.5,185,105,112.5,115,115,215,-225,225,225,525,
2,Justin Barry,M,SBD,MR-C,59,Raw,2000,,NH,58.9,177.5,185,190,190,105,110,115,115,195,205,-212.5,205,510,
3,Dallas Hopping,M,SBD,MR-C,59,Raw,1995,Missouri Valley Vikings,AR,58.2,-175,175,-180,175,100,105,-112.5,105,195,200,-212.5,200,480,
4,Cheemeng Lor,M,SBD,MR-C,59,Raw,2002,,OK,57.8,165,170,177.5,177.5,97.5,105,110,110,170,180,-185,180,467.5,
5,Braxton Dilworth,M,SBD,MR-C,59,Raw,1999,,MN,57.7,165,-170,-170,165,82.5,85,-87.5,85,180,185,-187.5,185,435,
6,Yash Pednekar,M,SBD,MR-C,59,Raw,1999,,MD,57.7,122.5,130,137.5,137.5,75,80,-87.5,80,185,195,205,205,422.5,
7,Richard Burke,M,SBD,MR-C,59,Raw,2000,,FL,58.2,112.5,122.5,130,130,85,92.5,97.5,97.5,167.5,182.5,192.5,192.5,420,
8,Kolby Pierce,M,SBD,MR-C,59,Raw,2001,McKendree University Powerlifting,MI,58.5,145,152.5,-157.5,152.5,95,102.5,105,105,147.5,155,157.5,157.5,415,
9,Edward Taylor #2,M,SBD,MR-C,59,Raw,1997,,LA,57.4,130,140,145,145,85,90,-92.5,90,160,170,-182.5,170,405,
10,Challen Jimenez,M,SBD,MR-C,59,Raw,2002,,KS,56.8,140,142.5,-147.5,142.5,105,107.5,-110,107.5,142.5,147.5,150,150,400,
11,John Vertetis,M,SBD,MR-C,59,Raw,2001,,NH,58.4,-125,125,-140,125,82.5,87.5,92.5,92.5,162.5,167.5,-175,167.5,385,
12,Sean Orso,M,SBD,MR-C,59,Raw,2001,,FL,57.3,-122.5,122.5,-132.5,122.5,77.5,82.5,-87.5,82.5,162.5,172.5,-182.5,172.5,377.5,
DQ,Zach Wetherbee,M,SBD,MR-C,59,Raw,2000,,TX,55.5,-127.5,-127.5,-127.5,,82.5,87.5,-90,87.5,147.5,155,165,165,,
1,Brian Le #1,M,SBD,MR-C,66,Raw,1999,,WA,64.4,210,-220,-220,210,140,145,-147.5,145,267.5,280,-291,280,635,
2,Henry Diers,M,SBD,MR-C,66,Raw,1999,Midland University,NE,65.5,205,215,222.5,222.5,135,142.5,150,150,205,217.5,-227.5,217.5,590,
3,Thien Chu,M,SBD,MR-C,66,Raw,2001,,WA,65.3,177.5,190,197.5,197.5,-142.5,142.5,155,155,220,232.5,-247.5,232.5,585,
4,Kyle Nowak #1,M,SBD,MR-C,66,Raw,2000,The Ohio State University,OH,64.5,175,185,195,195,117.5,125,130,130,222.5,237.5,247.5,247.5,572.5,
5,Peter Nguyen #5,M,SBD,MR-C,66,Raw,2000,,PA,65.1,197.5,207.5,212.5,212.5,110,117.5,125,125,-235,-235,235,235,572.5,
6,Jackie Vong,M,SBD,MR-C,66,Raw,2002,,TX,64.9,175,182.5,-190,182.5,105,112.5,117.5,117.5,212.5,227.5,250,250,550,
7,Lance Maulsby,M,SBD,MR-C,66,Raw,2000,,FL,65.9,190,195,202.5,202.5,110,115,117.5,117.5,205,217.5,225,225,545,
8,Ricardo Ramos,M,SBD,MR-C,66,Raw,2000,,TX,65.9,-175,-180,180,180,122.5,130,137.5,137.5,210,225,-240,225,542.5,
9,Michael Long #2,M,SBD,MR-C,66,Raw,1996,,CT,65.5,192.5,197.5,-202.5,197.5,127.5,-130,-130,127.5,195,202.5,207.5,207.5,532.5,
10,Alexis Zeine,M,SBD,MR-C,66,Raw,1999,,FL,65.7,-172.5,177.5,-185,177.5,117.5,125,127.5,127.5,210,225,-235,225,530,
11,Kyle Smith #3,M,SBD,MR-C,66,Raw,1996,McKendree University Powerlifting,AR,65.3,182.5,-195,-195,182.5,127.5,132.5,-135,132.5,210,-222.5,-225,210,525,
12,Joey Ho,M,SBD,MR-C,66,Raw,2002,,IA,65.5,192.5,-205,-205,192.5,105,110,117.5,117.5,197.5,215,-232.5,215,525,
13,Ryan Tran,M,SBD,MR-C,66,Raw,1998,,IL,64.6,172.5,182.5,-190,182.5,105,112.5,120,120,207.5,217.5,-227.5,217.5,520,
14,Coy Burrows,M,SBD,MR-C,66,Raw,2001,,TX,65.3,172.5,185,187.5,187.5,122.5,127.5,-130,127.5,192.5,205,-215,205,520,
15,Daniel Malone,M,SBD,MR-C,66,Raw,1999,,OK,65.6,172.5,-180,182.5,182.5,120,127.5,-130,127.5,190,200,207.5,207.5,517.5,
16,Logan Solomon,M,SBD,MR-C,66,Raw,2000,,FL,65.8,160,-170,-170,160,120,130,135,135,205,215,-222.5,215,510,
17,Nicholas Roque,M,SBD,MR-C,66,Raw,2002,,PA,65.5,160,170,-177.5,170,95,-100,100,100,210,222.5,-240,222.5,492.5,
18,Justin Rife,M,SBD,MR-C,66,Raw,2000,UW - Madison,WI,65.6,155,162.5,-170,162.5,105,110,112.5,112.5,202.5,215,-225,215,490,
19,Dawood Alohaly,M,SBD,MR-C,66,Raw,1999,,OH,65.6,180,-185,-185,180,-90,90,95,95,190,200,205,205,480,
20,Christopher Burgos,M,SBD,MR-C,66,Raw,1998,,FL,65.8,160,-172.5,-175,160,110,-112.5,-112.5,110,210,-217.5,-220,210,480,
21,Joshua Fraser,M,SBD,MR-C,66,Raw,1998,,IL,65.6,-170,-175,175,175,87.5,97.5,-102.5,97.5,182.5,192.5,200,200,472.5,
22,John Montgomery,M,SBD,MR-C,66,Raw,1999,,VA,64.8,147.5,160,-165,160,90,95,100,100,187.5,200,207.5,207.5,467.5,
23,Gregory Rivin,M,SBD,MR-C,66,Raw,1999,The Ohio State University,OH,63.9,-165,-165,165,165,120,-125,-125,120,172.5,180,-187.5,180,465,
24,William Nguyen,M,SBD,MR-C,66,Raw,2002,,TX,64.5,155,165,-175,165,97.5,102.5,-107.5,102.5,157.5,167.5,175,175,442.5,
25,Adrian Blanton,M,SBD,MR-C,66,Raw,1999,Missouri Valley Vikings,MO,65.9,-150,-150,150,150,95,100,-105,100,182.5,192.5,-200,192.5,442.5,
26,Jacob Doehring,M,SBD,MR-C,66,Raw,1998,,IL,65.3,142.5,-155,155,155,102.5,-110,-110,102.5,182.5,-190,-190,182.5,440,
DQ,Carter Winegeart,M,SBD,MR-C,66,Raw,1999,,TX,64.5,157.5,-167.5,167.5,167.5,-110,-110,-110,,-185,,,,,
DQ,Adrian Junior,M,SBD,MR-C,66,Raw,2000,,LA,65.9,160,-170,-170,160,-112.5,-112.5,-112.5,,-197.5,197.5,-200,197.5,,
DQ,Tyler Marcel,M,SBD,MR-C,66,Raw,1996,,TX,66,-197.5,,-197.5,,-152.5,152.5,-157.5,152.5,-235,,,,,
1,Kyle Petersen,M,SBD,MR-C,74,Raw,2001,Arizona State Powerlifting,AZ,72.9,250,266,-272.5,266,165,176,-181.5,176,255,-267.5,-267.5,255,697,
2,Shawn Alexander,M,SBD,MR-C,74,Raw,1997,,MN,73.8,217.5,225,-230,225,157.5,,,157.5,245,255,260,260,642.5,
3,Khai Nguyen,M,SBD,MR-C,74,Raw,2001,,WA,72.9,197.5,212.5,227.5,227.5,115,122.5,125,125,250,265,280,280,632.5,
4,Yohan Purugganan,M,SBD,MR-C,74,Raw,1999,The Ohio State University,OH,72.8,210,220,-225,220,135,-137.5,-137.5,135,250,262.5,267.5,267.5,622.5,
5,Joseph Rodriguez #1,M,SBD,MR-C,74,Raw,1997,,FL,71.7,195,207.5,212.5,212.5,157.5,167.5,-175,167.5,212.5,230,240,240,620,
6,Nathan Tansey,M,SBD,MR-C,74,Raw,2000,,IA,72.5,185,195,205,205,-135,135,147.5,147.5,237.5,250,260,260,612.5,
7,Umang Patel,M,SBD,MR-C,74,Raw,1999,,KY,73.3,207.5,217.5,222.5,222.5,152.5,-157.5,-157.5,152.5,222.5,235,-247.5,235,610,
8,Nicklas Haddad,M,SBD,MR-C,74,Raw,1998,The Ohio State University,OH,72.7,-202.5,-202.5,202.5,202.5,132.5,135,137.5,137.5,240,252.5,265,265,605,
9,Mitchell Gibson,M,SBD,MR-C,74,Raw,1999,,WI,73.6,215,225,232.5,232.5,110,120,127.5,127.5,245,-255,-255,245,605,
10,Nicolas Ifju,M,SBD,MR-C,74,Raw,2002,,OH,73.7,207.5,217.5,-222.5,217.5,132.5,137.5,142.5,142.5,227.5,242.5,-252.5,242.5,602.5,
11,Benjamin Cooney,M,SBD,MR-C,74,Raw,1998,Midland University,NE,70.5,195,210,217.5,217.5,130,137.5,142.5,142.5,220,235,-260,235,595,
12,Yuheng Liu,M,SBD,MR-C,74,Raw,2002,,PA,73.3,195,210,215,215,125,135,-137.5,135,-225,230,242.5,242.5,592.5,
13,Joel Tansey,M,SBD,MR-C,74,Raw,1998,,IA,73,180,190,-197.5,190,152.5,160,-165,160,220,232.5,240,240,590,
14,Nicholas Abbatangelo,M,SBD,MR-C,74,Raw,1999,,MA,72.1,182.5,187.5,195,195,127.5,132.5,137.5,137.5,240,255,-265,255,587.5,
15,Justin Choy,M,SBD,MR-C,74,Raw,1999,,WI,73.4,212.5,-225,-225,212.5,112.5,117.5,-120,117.5,245,257.5,-262.5,257.5,587.5,
16,Ryan Nguyen,M,SBD,MR-C,74,Raw,1999,,TX,73.5,180,192.5,202.5,202.5,120,127.5,-132.5,127.5,235,250,-270,250,580,
17,Nicholas Evans #3,M,SBD,MR-C,74,Raw,2000,,PA,73.8,190,-202.5,-202.5,190,132.5,-140,140,140,235,250,-257.5,250,580,
18,Josh Jennings,M,SBD,MR-C,74,Raw,2001,,TN,73.7,177.5,190,195,195,137.5,-142.5,142.5,142.5,215,230,240,240,577.5,
19,Joshua Asarnow,M,SBD,MR-C,74,Raw,2000,,GA,73.1,192.5,202.5,210,210,127.5,132.5,137.5,137.5,205,220,227.5,227.5,575,2000-08-18
20,Joshua Sisk,M,SBD,MR-C,74,Raw,1999,,NC,70.5,187.5,197.5,207.5,207.5,110,-112.5,-112.5,110,225,237.5,250,250,567.5,
21,Mitchell Glover,M,SBD,MR-C,74,Raw,2000,,SC,74,187.5,195,-207.5,195,130,135,142.5,142.5,215,227.5,-240,227.5,565,
22,Benjamin Kim,M,SBD,MR-C,74,Raw,1996,,TX,73.1,172.5,185,192.5,192.5,147.5,-157.5,-165,147.5,-202.5,-212.5,222.5,222.5,562.5,
23,Caleb Pritchett,M,SBD,MR-C,74,Raw,2000,,OK,73,187.5,190,202.5,202.5,117.5,122.5,-127.5,122.5,215,225,-235,225,550,
24,Robert McDonald,M,SBD,MR-C,74,Raw,1999,,TX,72.2,-190,190,-200,190,120,127.5,-132.5,127.5,212.5,227.5,-232.5,227.5,545,
25,Tyler Wallace,M,SBD,MR-C,74,Raw,1999,,NC,73.3,160,175,-182.5,175,115,122.5,125,125,205,235,-240,235,535,
26,John Murphy,M,SBD,MR-C,74,Raw,1998,,GA,73.7,172.5,182.5,187.5,187.5,130,-135,-135,130,185,200,215,215,532.5,
27,Jacob Eberly,M,SBD,MR-C,74,Raw,1998,,OH,71.7,-182.5,182.5,-195,182.5,110,-115,115,115,212.5,225,-235,225,522.5,
DQ,Brandon Sigala,M,SBD,MR-C,74,Raw,2001,Missouri Valley Vikings,MO,73.3,-220,-220,-220,,,,,,,,,,,
DQ,Ryan Sotnick,M,SBD,MR-C,74,Raw,1998,,MD,73.9,210,220,-227.5,220,115,-120,-120,115,-285,-285,-285,,,
1,Kyle Dawson,M,SBD,MR-C,83,Raw,1999,,NE,82.4,265,280,285,285,140,145,150,150,282.5,302.5,310,310,745,
2,Antonino Fazio,M,SBD,MR-C,83,Raw,1999,,NY,82.6,235,247.5,-255,247.5,190,195,200,200,272.5,285,-297.5,285,732.5,
3,Zanoah Arnold,M,SBD,MR-C,83,Raw,1998,,TX,82,242.5,252.5,260,260,142.5,150,152.5,152.5,290,310,-320,310,722.5,
4,Christian Petrilli,M,SBD,MR-C,83,Raw,1999,,NY,83,247.5,255,-260,255,162.5,167.5,-172.5,167.5,282.5,300,-312.5,300,722.5,
5,Seth Dasuki,M,SBD,MR-C,83,Raw,2002,Midland University,MN,82.5,242.5,252.5,257.5,257.5,142.5,147.5,150,150,282.5,297.5,307.5,307.5,715,
6,Joel Garza,M,SBD,MR-C,83,Raw,1999,,TX,81.5,242.5,255,265,265,165,175,182.5,182.5,265,-285,-295,265,712.5,
7,Rob Escalante,M,SBD,MR-C,83,Raw,1997,Texas A&M,TX,82.9,-235,-245,245,245,170,177.5,182.5,182.5,260,277.5,285,285,712.5,
8,Shane Harrington,M,SBD,MR-C,83,Raw,2000,,NC,81.4,250,262.5,-272.5,262.5,147.5,155,-160,155,280,-290,290,290,707.5,
9,Alex Sydor,M,SBD,MR-C,83,Raw,2002,,NY,82.7,247.5,262.5,-272.5,262.5,147.5,155,-157.5,155,267.5,282.5,290,290,707.5,
10,Jeffrey Leung,M,SBD,MR-C,83,Raw,1999,,WA,81.3,235,247.5,-252.5,247.5,140,145,-147.5,145,290,305,-312.5,305,697.5,
11,Jeremiah Vivero,M,SBD,MR-C,83,Raw,1999,,VA,81.4,227.5,242.5,-257.5,242.5,140,147.5,155,155,250,270,285,285,682.5,
12,Jett Ertle,M,SBD,MR-C,83,Raw,2000,,TX,83,225,240,-245,240,147.5,157.5,-160,157.5,242.5,257.5,-262.5,257.5,655,
13,Anthony LoPresti #2,M,SBD,MR-C,83,Raw,1999,,PA,82.5,225,235,237.5,237.5,145,-152.5,-152.5,145,270,-282.5,-282.5,270,652.5,
15,Kyle-Rae Patch,M,SBD,MR-C,83,Raw,1997,,FL,82.7,210,225,-232.5,225,147.5,157.5,-165,157.5,255,270,-282.5,270,652.5,
14,Matthew Smith #14,M,SBD,MR-C,83,Raw,1996,,NE,82.7,227.5,237.5,-247.5,237.5,130,135,137.5,137.5,247.5,265,277.5,277.5,652.5,
16,Ragheb Abu-Rubieh,M,SBD,MR-C,83,Raw,2000,,MA,81.8,-210,220,230,230,147.5,155,160,160,222.5,235,245,245,635,
17,Brandon Trinh,M,SBD,MR-C,83,Raw,1999,The Ohio State University,OH,82.2,207.5,220,232.5,232.5,130,137.5,142.5,142.5,240,257.5,-272.5,257.5,632.5,
18,Jeffrey Gonzalez,M,SBD,MR-C,83,Raw,2000,,NJ,82.8,215,225,235,235,142.5,152.5,-162.5,152.5,210,227.5,242.5,242.5,630,
19,Nathan Kim,M,SBD,MR-C,83,Raw,1999,,HI,82.4,210,225,230,230,142.5,150,155,155,227.5,242.5,-252.5,242.5,627.5,
20,Matthew Baumer,M,SBD,MR-C,83,Raw,2001,,KY,81.8,215,222.5,227.5,227.5,137.5,142.5,145,145,245,252.5,-260,252.5,625,
21,Zain Skalos,M,SBD,MR-C,83,Raw,1996,,PA,82.1,-215,225,230,230,147.5,-155,-155,147.5,235,245,-257.5,245,622.5,
22,Sion Farley-Thompson,M,SBD,MR-C,83,Raw,2001,,GA,82.2,215,230,240,240,125,130,132.5,132.5,227.5,242.5,-262.5,242.5,615,
23,Shawn Weigand,M,SBD,MR-C,83,Raw,1999,,NY,82.4,195,205,212.5,212.5,127.5,135,142.5,142.5,237.5,247.5,257.5,257.5,612.5,
24,Allan Ramirez,M,SBD,MR-C,83,Raw,1999,,TX,82.5,200,207.5,220,220,127.5,137.5,-140,137.5,210,227.5,-242.5,227.5,585,
25,Zannis Panos,M,SBD,MR-C,83,Raw,2001,,VA,81.9,205,-215,-227.5,205,130,-132.5,,130,215,-227.5,227.5,227.5,562.5,
DQ,Austin Ballard,M,SBD,MR-C,83,Raw,2000,,TX,78.4,-202.5,-202.5,202.5,202.5,110,-115,-115,110,-227.5,,,,,
DQ,Emmanuel Trujillo,M,SBD,MR-C,83,Raw,1997,,CA,80.2,205,-212.5,-212.5,205,120,-125,-125,120,-285,-285,-285,,,
1,Shane Nutt,M,SBD,MR-C,93,Raw,2000,Midland University,MI,88.9,260,275,282.5,282.5,162.5,170,172.5,172.5,302.5,322.5,340,340,795,
2,Hayden Willis #1,M,SBD,MR-C,93,Raw,2000,,LA,88.6,265,282.5,,282.5,170,-182.5,,170,302.5,322.5,340,340,792.5,
3,Jeremy Johnson,M,SBD,MR-C,93,Raw,2000,,LA,92.1,255,272.5,-285,272.5,160,170,-180,170,265,280,292.5,292.5,735,
4,Gavin King,M,SBD,MR-C,93,Raw,2001,Midland University,IA,89.2,245,-255,255,255,145,155,160,160,-280,292.5,305,305,720,
5,Quinton Briggs,M,SBD,MR-C,93,Raw,2000,,UT,90.4,250,265,-272.5,265,142.5,-147.5,-147.5,142.5,280,297.5,307.5,307.5,715,
6,Faruk Yucel,M,SBD,MR-C,93,Raw,1999,,PA,91.4,-240,240,255,255,172.5,182.5,-185,182.5,252.5,267.5,277.5,277.5,715,
7,Jacob Combs,M,SBD,MR-C,93,Raw,1998,The Ohio State University,OH,88.6,237.5,252.5,270,270,162.5,177.5,180,180,237.5,-260,260,260,710,
8,Jun Bradley Cadelinia,M,SBD,MR-C,93,Raw,1995,,CA,93,227.5,240,250,250,150,160,167.5,167.5,260,277.5,287.5,287.5,705,
9,Zachary Arnold,M,SBD,MR-C,93,Raw,2001,,OH,91.5,265,280,-292.5,280,137.5,145,150,150,255,270,-275,270,700,
10,Ian Konecnik,M,SBD,MR-C,93,Raw,1998,,MO,90.6,242.5,260,-270,260,162.5,-172.5,-172.5,162.5,275,-287.5,-295,275,697.5,
11,Miguel Saucedo,M,SBD,MR-C,93,Raw,2000,,TX,89.7,207.5,220,227.5,227.5,155,160,165,165,267.5,290,302.5,302.5,695,
12,Clifford David,M,SBD,MR-C,93,Raw,1997,,CA,90.8,235,-245,-245,235,155,162.5,167.5,167.5,290,-305,-305,290,692.5,
13,Daniel Aguirre,M,SBD,MR-C,93,Raw,1999,,CA,92.3,240,250,255,255,145,150,152.5,152.5,260,280,-292.5,280,687.5,
14,Ethan Winn,M,SBD,MR-C,93,Raw,2000,,OK,91.3,245,260,-272.5,260,142.5,150,152.5,152.5,257.5,272.5,-287.5,272.5,685,
15,Kyle Duncan,M,SBD,MR-C,93,Raw,2001,,NC,93,-240,252.5,-265,252.5,145,150,155,155,245,260,275,275,682.5,
16,Daniel Filipek,M,SBD,MR-C,93,Raw,1997,McKendree University Powerlifting,MO,89.2,215,230,242.5,242.5,145,155,-160,155,260,280,-297.5,280,677.5,
17,Spencer Mann,M,SBD,MR-C,93,Raw,2000,,MS,92.3,247.5,260,265,265,132.5,142.5,145,145,255,265,-272.5,265,675,
18,Patricio Sainz,M,SBD,MR-C,93,Raw,2000,,ID,90.2,220,230,240,240,140,145,150,150,265,275,282.5,282.5,672.5,
19,Taylor Casteel,M,SBD,MR-C,93,Raw,2000,,LA,92.7,-245,-245,245,245,150,157.5,162.5,162.5,-255,265,-277.5,265,672.5,
20,Tomasz Kmiotek,M,SBD,MR-C,93,Raw,1999,,IL,86.3,242.5,252.5,-262.5,252.5,142.5,155,157.5,157.5,245,260,-272.5,260,670,
21,Hunter Flora,M,SBD,MR-C,93,Raw,2000,,VA,91.8,220,230,237.5,237.5,135,145,147.5,147.5,252.5,265,282.5,282.5,667.5,
22,Ramsey Rohner,M,SBD,MR-C,93,Raw,1999,,LA,87.8,222.5,235,247.5,247.5,150,157.5,160,160,242.5,255,-265,255,662.5,
23,Praveen Sakthivel,M,SBD,MR-C,93,Raw,1999,,NJ,90,207.5,-222.5,227.5,227.5,130,140,-147.5,140,247.5,265,280,280,647.5,
24,Jaron Yamane,M,SBD,MR-C,93,Raw,1996,,HI,91.7,200,215,225,225,162.5,172.5,177.5,177.5,227.5,245,-260,245,647.5,
25,Paul Beck,M,SBD,MR-C,93,Raw,2000,,NY,91.4,217.5,227.5,235,235,155,162.5,-167.5,162.5,235,245,-252.5,245,642.5,
26,Frank Pasqualini,M,SBD,MR-C,93,Raw,1999,,PA,90.8,-227.5,237.5,245,245,130,-137.5,137.5,137.5,240,252.5,257.5,257.5,640,
27,Tyler Johnson,M,SBD,MR-C,93,Raw,1998,,ID,92.2,230,242.5,250,250,132.5,142.5,145,145,232.5,245,-255,245,640,
28,Trey Hill,M,SBD,MR-C,93,Raw,2000,,GA,89.6,197.5,207.5,220,220,135,145,-150,145,242.5,257.5,272.5,272.5,637.5,
29,William Reisinger,M,SBD,MR-C,93,Raw,1999,,OH,90.2,225,235,-240,235,142.5,150,152.5,152.5,235,245,250,250,637.5,
30,Oskar Timm,M,SBD,MR-C,93,Raw,1999,,TX,92.4,220,227.5,232.5,232.5,135,-140,140,140,230,240,250,250,622.5,
31,Jarrett Nowak,M,SBD,MR-C,93,Raw,2002,The Ohio State University,OH,89.8,210,222.5,227.5,227.5,125,132.5,-137.5,132.5,240,250,260,260,620,
32,Kenneth Allen,M,SBD,MR-C,93,Raw,1997,UW - Madison,WI,87.7,195,202.5,207.5,207.5,127.5,135,137.5,137.5,-245,257.5,-272.5,257.5,602.5,
DQ,Matt Nguyen,M,SBD,MR-C,93,Raw,1999,,FL,90.3,210,220,-225,220,-170,-170,-170,,247.5,257.5,-267.5,257.5,,
1,Sean Mills #1,M,SBD,MR-C,105,Raw,2001,,PA,104.1,295,310.5,318,318,177.5,182.5,185,185,305,320,325,325,828,
2,Paul Harayo,M,SBD,MR-C,105,Raw,2000,,IL,104.5,300,310,320,320,167.5,-177.5,177.5,177.5,305,320,-332.5,320,817.5,
3,Grant Ivarson,M,SBD,MR-C,105,Raw,2002,UW - Madison,WI,103.9,290,-305,-305,290,185,190,195,195,295,307.5,315,315,800,
4,Kevin Nguyen #16,M,SBD,MR-C,105,Raw,1999,,TX,105,275,290,297.5,297.5,185,190,195,195,275,300,-332.5,300,792.5,
5,Matthew Weisberg,M,SBD,MR-C,105,Raw,1999,Midland University,PA,99.9,272.5,285,-295,285,165,175,-182.5,175,295,307.5,315,315,775,
6,Carter Welch,M,SBD,MR-C,105,Raw,2000,Midland University,WI,102.8,275,-280,280,280,160,167.5,175,175,280,305,315,315,770,
7,James Cole #1,M,SBD,MR-C,105,Raw,1998,,PA,103,-280,290,-302.5,290,190,200,205,205,265,-277.5,-277.5,265,760,
8,Robert Londono,M,SBD,MR-C,105,Raw,2000,UW - Madison,IL,102.6,265,277.5,287.5,287.5,155,162.5,167.5,167.5,275,287.5,302.5,302.5,757.5,
9,Tyler Wilson #7,M,SBD,MR-C,105,Raw,2000,,KS,103.5,250,262.5,270,270,167.5,177.5,,177.5,292.5,310,-322.5,310,757.5,
10,Andrew Thullesen,M,SBD,MR-C,105,Raw,1998,Missouri Valley Vikings,MO,98.4,240,252.5,,252.5,145,155,-160,155,-272.5,285,-302.5,285,692.5,
11,John Alimo,M,SBD,MR-C,105,Raw,1998,,NY,104,227.5,-237.5,245,245,160,162.5,167.5,167.5,257.5,275,-290,275,687.5,
12,Johnny Eriquezzo,M,SBD,MR-C,105,Raw,2001,,MS,102.6,250,262.5,-270,262.5,157.5,162.5,167.5,167.5,230,245,255,255,685,
13,Leroy Bolden,M,SBD,MR-C,105,Raw,2001,,KS,95.4,235,245,250,250,145,152.5,157.5,157.5,260,270,-280,270,677.5,
14,David Garza,M,SBD,MR-C,105,Raw,1998,,TX,101.6,257.5,272.5,285,285,122.5,130,-137.5,130,-247.5,247.5,255,255,670,
15,Andrew Castillo,M,SBD,MR-C,105,Raw,1995,Arizona State Powerlifting,AZ,103.3,245,262.5,-267.5,262.5,127.5,137.5,142.5,142.5,240,255,265,265,670,
16,Brady Fishpaw,M,SBD,MR-C,105,Raw,2002,The Ohio State University,OH,102.4,232.5,245,252.5,252.5,137.5,145,150,150,232.5,247.5,260,260,662.5,
17,Ricky Gomez #1,M,SBD,MR-C,105,Raw,2001,,PA,101.4,235,-245,245,245,157.5,165,-170,165,250,-265,-265,250,660,
18,Juan Gomez,M,SBD,MR-C,105,Raw,1998,,TX,101.8,205,220,227.5,227.5,160,-172.5,-172.5,160,250,265,272.5,272.5,660,
19,Baxter Self,M,SBD,MR-C,105,Raw,2000,,KS,104.8,240,245,-257.5,245,170,-177.5,-177.5,170,227.5,237.5,245,245,660,
20,Aaron Veselak,M,SBD,MR-C,105,Raw,1998,,OK,97.7,212.5,227.5,242.5,242.5,125,137.5,145,145,247.5,262.5,-272.5,262.5,650,
21,Jakin Buckalew,M,SBD,MR-C,105,Raw,2000,,GA,97.6,247.5,-262.5,-262.5,247.5,-125,125,-130,125,260,275,-280,275,647.5,
22,Brandon Blose,M,SBD,MR-C,105,Raw,1999,,PA,102.5,220,230,237.5,237.5,137.5,145,-152.5,145,245,252.5,262.5,262.5,645,
23,Caleb Gibson,M,SBD,MR-C,105,Raw,2000,,PA,103,-230,230,245,245,140,145,150,150,235,250,-260,250,645,
24,Tanner Rowe,M,SBD,MR-C,105,Raw,2000,,NE,103,205,215,227.5,227.5,125,135,140,140,255,265,275,275,642.5,
25,Ryan Stephens,M,SBD,MR-C,105,Raw,2001,,OK,101.3,230,242.5,260,260,125,132.5,140,140,240,-257.5,-265,240,640,
26,Pirro Prifti,M,SBD,MR-C,105,Raw,2002,,PA,99.8,-202.5,215,227.5,227.5,130,137.5,-142.5,137.5,252.5,267.5,-277.5,267.5,632.5,
27,Kevin Bowles,M,SBD,MR-C,105,Raw,1996,,FL,101.3,205,-230,232.5,232.5,142.5,152.5,160,160,210,222.5,237.5,237.5,630,
28,Jaylan Ferguson,M,SBD,MR-C,105,Raw,2000,,SC,100.9,220,227.5,232.5,232.5,125,132.5,135,135,250,260,-272.5,260,627.5,
29,James Petritz,M,SBD,MR-C,105,Raw,2001,,CT,103.6,215,232.5,245,245,132.5,145,150,150,215,232.5,-242.5,232.5,627.5,
30,Zachary Whitley,M,SBD,MR-C,105,Raw,1998,,TX,93.9,210,220,230,230,140,145,150,150,230,240,-252.5,240,620,
31,Bailey Mckenzie,M,SBD,MR-C,105,Raw,2001,,TX,102.96,222.5,237.5,-245,237.5,110,120,127.5,127.5,215,232.5,250,250,615,
32,Gunther Kroth,M,SBD,MR-C,105,Raw,2000,,NY,101.9,205,215,220,220,115,-117.5,-117.5,115,250,265,275,275,610,
33,Jacob Honig,M,SBD,MR-C,105,Raw,1999,,CT,94.6,190,207.5,217.5,217.5,120,130,-137.5,130,220,-240,252.5,252.5,600,
34,Eston Epton,M,SBD,MR-C,105,Raw,2000,,TX,96.7,182.5,-200,,182.5,142.5,157.5,167.5,167.5,227.5,242.5,-255,242.5,592.5,
35,Alvaro Nava,M,SBD,MR-C,105,Raw,1997,,FL,101.1,177.5,187.5,195,195,140,147.5,-150,147.5,220,235,250,250,592.5,
36,Carl McKenzie,M,SBD,MR-C,105,Raw,2002,The Ohio State University,OH,94.3,182.5,192.5,202.5,202.5,120,127.5,-132.5,127.5,227.5,242.5,257.5,257.5,587.5,
37,Hayden Lecius,M,SBD,MR-C,105,Raw,1999,,FL,101.5,217.5,222.5,230,230,125,132.5,-137.5,132.5,215,222.5,-227.5,222.5,585,
38,Chase LeBlanc,M,SBD,MR-C,105,Raw,1999,McKendree University Powerlifting,IL,102.4,192.5,202.5,207.5,207.5,145,-152.5,-152.5,145,217.5,230,-237.5,230,582.5,
39,Jerimiyah Overton,M,SBD,MR-C,105,Raw,2000,,LA,104.6,227.5,240,-255,240,157.5,-167.5,-167.5,157.5,157.5,170,185,185,582.5,
40,Joseph Frengel,M,SBD,MR-C,105,Raw,1997,,PA,99.8,215,-227.5,-227.5,215,120,132.5,-140,132.5,215,232.5,-250,232.5,580,
41,Jacob Blevins,M,SBD,MR-C,105,Raw,1998,,GA,103.1,175,187.5,-192.5,187.5,150,-157.5,-157.5,150,220,240,-245,240,577.5,
42,John Kalianov,M,SBD,MR-C,105,Raw,1997,Arizona State Powerlifting,AZ,102.1,195,205,-207.5,205,130,-135,-135,130,240,-247.5,,240,575,
43,John Piekut,M,SBD,MR-C,105,Raw,1999,,PA,94,175,187.5,200,200,130,145,155,155,185,200,-220,200,555,
44,Thomas Kelleher,M,SBD,MR-C,105,Raw,1999,,RI,102.5,167.5,175,180,180,132.5,145,-147.5,145,215,230,-237.5,230,555,
45,Michael Lafer,M,SBD,MR-C,105,Raw,2000,Arizona State Powerlifting,AZ,102.8,227.5,235,-245,235,25,,,25,215,230,-235,230,490,
46,Rakip Alimi,M,SBD,MR-C,105,Raw,1998,UW - Madison,WI,104.2,25,,,25,187.5,197.5,-208,197.5,75,,,75,297.5,
DQ,Ryan Robertson,M,SBD,MR-C,105,Raw,2001,,NY,97,257.5,-270,-280,257.5,150,160,162.5,162.5,-1,,,,,
DQ,Austin Banks-Wilson,M,SBD,MR-C,105,Raw,1995,,TX,104.1,210,230,240,240,165,175,-177.5,175,-225,-225,-225,,,
1,Duncan Hundley,M,SBD,MR-C,120,Raw,1998,,TN,119.1,350,-367.5,,350,-205,205,-215,205,277.5,-302.5,-302.5,277.5,832.5,
2,Jordon Spence,M,SBD,MR-C,120,Raw,2000,McKendree University Powerlifting,MS,111.8,265,282.5,295,295,147.5,157.5,-165,157.5,297.5,320,-335,320,772.5,
3,Ryan Dengler,M,SBD,MR-C,120,Raw,1999,The Ohio State University,OH,107.8,257.5,270,280,280,165,172.5,177.5,177.5,260,275,-285,275,732.5,
4,Jonathan Estranero,M,SBD,MR-C,120,Raw,1995,,HI,117.5,262.5,280,287.5,287.5,155,162.5,167.5,167.5,245,262.5,272.5,272.5,727.5,
5,Corbin McGuffin-Noll,M,SBD,MR-C,120,Raw,1999,The Ohio State University,OH,111.8,242.5,252.5,257.5,257.5,170,175,177.5,177.5,262.5,275,285,285,720,
6,Nathan Heckart,M,SBD,MR-C,120,Raw,2000,Midland University,IA,118.1,265,-275,-275,265,160,167.5,-170,167.5,265,275,-280,275,707.5,
7,Reese Worden,M,SBD,MR-C,120,Raw,2001,,MI,113.4,265,282.5,295,295,135,145,-152.5,145,265,-287.5,-287.5,265,705,
8,Johnlou Bernard Reyes,M,SBD,MR-C,120,Raw,2001,,TX,110.3,250,257.5,265,265,150,155,-160,155,265,-275,-275,265,685,
9,Dylan Aguillard,M,SBD,MR-C,120,Raw,1997,,TX,115.8,215,230,237.5,237.5,162.5,170,175,175,245,260,272.5,272.5,685,
10,Mateo Florez,M,SBD,MR-C,120,Raw,2001,,KS,117.6,250,-255,255,255,-135,140,142.5,142.5,265,275,-280,275,672.5,
11,Brandon Tran,M,SBD,MR-C,120,Raw,2002,,KS,113,247.5,255,262.5,262.5,135,140,-145,140,220,230,242.5,242.5,645,
12,Alexander Register,M,SBD,MR-C,120,Raw,1999,,SC,118.5,227.5,235,240,240,165,-170,170,170,232.5,-242.5,-242.5,232.5,642.5,
13,Daniel Shaver #2,M,SBD,MR-C,120,Raw,1999,,VA,118.1,235,-240,-240,235,150,-160,160,160,215,240,-250,240,635,
14,Michael Reffner,M,SBD,MR-C,120,Raw,2000,,KS,118.5,235,247.5,-252.5,247.5,127.5,132.5,-137.5,132.5,237.5,247.5,252.5,252.5,632.5,
15,Kael Venerable,M,SBD,MR-C,120,Raw,2001,Missouri Valley Vikings,MO,117.1,220,232.5,-247.5,232.5,132.5,140,-147.5,140,245,255,-272.5,255,627.5,
16,Joseph Markes,M,SBD,MR-C,120,Raw,1998,Missouri Valley Vikings,MO,117.6,190,197.5,217.5,217.5,132.5,137.5,145,145,245,-255,-272.5,245,607.5,
17,Charles Wellington,M,SBD,MR-C,120,Raw,2001,,LA,119.1,192.5,205,215,215,122.5,132.5,-137.5,132.5,205,227.5,237.5,237.5,585,
18,Adam Chesser,M,SBD,MR-C,120,Raw,1999,,KS,112.1,167.5,185,-190,185,125,132.5,-135,132.5,205,225,-232.5,225,542.5,
1,Joseph Peña #1,M,SBD,MR-C,120+,Raw,1998,Midland University,TX,184.4,395,415,430,430,210,222.5,-230.5,222.5,295,310,322.5,322.5,975,
2,Travis Shouse,M,SBD,MR-C,120+,Raw,1998,,TX,158,297.5,310,325,325,185,195,200,200,295,310,-335,310,835,
3,Tyler Gulbransen,M,SBD,MR-C,120+,Raw,1994,McKendree University Powerlifting,OR,131,-265,265,-272.5,265,170,177.5,182.5,182.5,342.5,-352.5,-352.5,342.5,790,
4,Caleb Meyer,M,SBD,MR-C,120+,Raw,1998,,AL,132.8,280,-292.5,-292.5,280,180,-187.5,-187.5,180,305,-320,-320,305,765,
5,Kevin Vuong,M,SBD,MR-C,120+,Raw,2001,Midland University,NE,133.7,287.5,300,-310,300,160,167.5,172.5,172.5,240,-255,-255,240,712.5,
6,Matthew Gomez,M,SBD,MR-C,120+,Raw,2002,Midland University,TX,141.6,240,250,-260,250,150,160,165,165,275,287.5,-300,287.5,702.5,
7,William Green,M,SBD,MR-C,120+,Raw,2001,,LA,134.5,230,240,252.5,252.5,160,165,170,170,230,250,272.5,272.5,695,
8,Huber Arana,M,SBD,MR-C,120+,Raw,1995,Missouri Valley Vikings,MO,137.8,-245,-245,245,245,152.5,165,167.5,167.5,282.5,-302.5,-302.5,282.5,695,
9,Adan Chavez,M,SBD,MR-C,120+,Raw,1997,,TX,120.2,247.5,-257.5,-257.5,247.5,165,-172.5,-172.5,165,225,237.5,265,265,677.5,
10,Jadon Bartman,M,SBD,MR-C,120+,Raw,2001,The Ohio State University,OH,124.7,205,217.5,230,230,145,152.5,157.5,157.5,240,250,-257.5,250,637.5,
11,Bryan Sluis,M,SBD,MR-C,120+,Raw,1996,The Ohio State University,OH,151.2,205,222.5,245,245,135,-142.5,142.5,142.5,190,220,-250,220,607.5,
12,George Sdregas,M,SBD,MR-C,120+,Raw,2001,The Ohio State University,OH,158.7,187.5,202.5,-210,202.5,160,167.5,-172.5,167.5,202.5,217.5,-230,217.5,587.5,
13,Derek Manaligod,M,SBD,MR-C,120+,Raw,1999,,TX,131.1,180,195,-207.5,195,122.5,-132.5,-132.5,122.5,222.5,240,257.5,257.5,575,
DQ,Stephen Acosta,M,SBD,MR-C,120+,Raw,2000,,KS,130.3,215,225,230,230,152.5,-157.5,157.5,157.5,-237.5,-237.5,-237.5,,,
DQ,Marcus Lindley,M,SBD,MR-C,120+,Raw,2001,,KS,194,-327.5,-327.5,-327.5,,212.5,-227.5,-232.5,212.5,235,242.5,-265,242.5,,
1,Brandan Ho,M,SBD,MR-Jr,59,Raw,1997,,NM,58,170,177.5,-182.5,177.5,112.5,120,125,125,175,182.5,190,190,492.5,
2,Spencer Reed,M,SBD,MR-Jr,59,Raw,1998,,VA,58.7,150,155,-160,155,90,95,-97.5,95,190,197.5,205,205,455,
3,Steven Monreal,M,SBD,MR-Jr,59,Raw,1999,,TX,58.9,170,-175,-175,170,87.5,92.5,-97.5,92.5,175,185,192.5,192.5,455,
1,Marcos Chavez,M,SBD,MR-Jr,66,Raw,1999,,TX,65.2,-175,175,-190,175,125,132.5,-135,132.5,225,237.5,250,250,557.5,
2,Erik Hogan,M,SBD,MR-Jr,66,Raw,1997,,ME,65.6,187.5,-197.5,197.5,197.5,117.5,122.5,127.5,127.5,220,232.5,-237.5,232.5,557.5,
1,Brian Marmolejo,M,SBD,MR-Jr,74,Raw,1999,,TX,73,210,222.5,227.5,227.5,122.5,132.5,137.5,137.5,265,-280,-280,265,630,
2,Cody Hartman,M,SBD,MR-Jr,74,Raw,1998,,TX,73.4,212.5,-222.5,222.5,222.5,152.5,160,165,165,220,232.5,-245,232.5,620,
1,Danny Stachelek,M,SBD,MR-Jr,83,Raw,1998,,NY,82.7,245,252.5,260,260,152.5,160,167.5,167.5,295,310,-323,310,737.5,
2,Nico Flores,M,SBD,MR-Jr,83,Raw,1998,,NJ,81.7,250,-265,-275,250,165,172.5,177.5,177.5,280,300,-310,300,727.5,
DQ,Philip Truong,M,SBD,MR-Jr,83,Raw,2000,,FL,82.3,227.5,-245,245,245,-165,-165,-165,,,,,,,
1,Shane Nutt,M,SBD,MR-Jr,93,Raw,2000,Midland University,MI,88.9,260,275,282.5,282.5,162.5,170,172.5,172.5,302.5,322.5,340,340,795,
2,Hayden Willis #1,M,SBD,MR-Jr,93,Raw,2000,,LA,88.6,265,282.5,,282.5,170,-182.5,,170,302.5,322.5,340,340,792.5,
3,Alexander Olarte,M,SBD,MR-Jr,93,Raw,1999,,CA,92.5,257.5,272.5,277.5,277.5,185,192.5,200,200,272.5,287.5,295,295,772.5,
4,Tyler Drahem,M,SBD,MR-Jr,93,Raw,1998,,TX,91.5,255,267.5,277.5,277.5,147.5,152.5,157.5,157.5,302.5,315,325,325,760,
5,Winson Tom,M,SBD,MR-Jr,93,Raw,1997,,NY,92,265,285,-300,285,152.5,160,-165,160,275,305,315,315,760,
6,Jeremy Johnson,M,SBD,MR-Jr,93,Raw,2000,,LA,92.1,255,272.5,-285,272.5,160,170,-180,170,265,280,292.5,292.5,735,
7,Santiago Ramirez,M,SBD,MR-Jr,93,Raw,1997,,TX,92.4,222.5,235,245,245,145,150,-157.5,150,300,315,327.5,327.5,722.5,
8,Quinton Briggs,M,SBD,MR-Jr,93,Raw,2000,,UT,90.4,250,265,-272.5,265,142.5,-147.5,-147.5,142.5,280,297.5,307.5,307.5,715,
9,Faruk Yucel,M,SBD,MR-Jr,93,Raw,1999,,PA,91.4,-240,240,255,255,172.5,182.5,-185,182.5,252.5,267.5,277.5,277.5,715,
10,Jacob Combs,M,SBD,MR-Jr,93,Raw,1998,The Ohio State University,OH,88.6,237.5,252.5,270,270,162.5,177.5,180,180,237.5,-260,260,260,710,
11,Ian Konecnik,M,SBD,MR-Jr,93,Raw,1998,,MO,90.6,242.5,260,-270,260,162.5,-172.5,-172.5,162.5,275,-287.5,-295,275,697.5,
12,Miguel Saucedo,M,SBD,MR-Jr,93,Raw,2000,,TX,89.7,207.5,220,227.5,227.5,155,160,165,165,267.5,290,302.5,302.5,695,
13,Clifford David,M,SBD,MR-Jr,93,Raw,1997,,CA,90.8,235,-245,-245,235,155,162.5,167.5,167.5,290,-305,-305,290,692.5,
14,Daniel Aguirre,M,SBD,MR-Jr,93,Raw,1999,,CA,92.3,240,250,255,255,145,150,152.5,152.5,260,280,-292.5,280,687.5,
15,Ethan Winn,M,SBD,MR-Jr,93,Raw,2000,,OK,91.3,245,260,-272.5,260,142.5,150,152.5,152.5,257.5,272.5,-287.5,272.5,685,
16,Daniel Filipek,M,SBD,MR-Jr,93,Raw,1997,McKendree University Powerlifting,MO,89.2,215,230,242.5,242.5,145,155,-160,155,260,280,-297.5,280,677.5,
17,Spencer Mann,M,SBD,MR-Jr,93,Raw,2000,,MS,92.3,247.5,260,265,265,132.5,142.5,145,145,255,265,-272.5,265,675,
18,Patricio Sainz,M,SBD,MR-Jr,93,Raw,2000,,ID,90.2,220,230,240,240,140,145,150,150,265,275,282.5,282.5,672.5,
19,Taylor Casteel,M,SBD,MR-Jr,93,Raw,2000,,LA,92.7,-245,-245,245,245,150,157.5,162.5,162.5,-255,265,-277.5,265,672.5,
20,Tomasz Kmiotek,M,SBD,MR-Jr,93,Raw,1999,,IL,86.3,242.5,252.5,-262.5,252.5,142.5,155,157.5,157.5,245,260,-272.5,260,670,
21,Hunter Flora,M,SBD,MR-Jr,93,Raw,2000,,VA,91.8,220,230,237.5,237.5,135,145,147.5,147.5,252.5,265,282.5,282.5,667.5,
22,Ramsey Rohner,M,SBD,MR-Jr,93,Raw,1999,,LA,87.8,222.5,235,247.5,247.5,150,157.5,160,160,242.5,255,-265,255,662.5,
23,Praveen Sakthivel,M,SBD,MR-Jr,93,Raw,1999,,NJ,90,207.5,-222.5,227.5,227.5,130,140,-147.5,140,247.5,265,280,280,647.5,
24,Paul Beck,M,SBD,MR-Jr,93,Raw,2000,,NY,91.4,217.5,227.5,235,235,155,162.5,-167.5,162.5,235,245,-252.5,245,642.5,
25,Frank Pasqualini,M,SBD,MR-Jr,93,Raw,1999,,PA,90.8,-227.5,237.5,245,245,130,-137.5,137.5,137.5,240,252.5,257.5,257.5,640,
26,Tyler Johnson,M,SBD,MR-Jr,93,Raw,1998,,ID,92.2,230,242.5,250,250,132.5,142.5,145,145,232.5,245,-255,245,640,
27,Trey Hill,M,SBD,MR-Jr,93,Raw,2000,,GA,89.6,197.5,207.5,220,220,135,145,-150,145,242.5,257.5,272.5,272.5,637.5,
28,William Reisinger,M,SBD,MR-Jr,93,Raw,1999,,OH,90.2,225,235,-240,235,142.5,150,152.5,152.5,235,245,250,250,637.5,
29,Oskar Timm,M,SBD,MR-Jr,93,Raw,1999,,TX,92.4,220,227.5,232.5,232.5,135,-140,140,140,230,240,250,250,622.5,
30,Kenneth Allen,M,SBD,MR-Jr,93,Raw,1997,UW - Madison,WI,87.7,195,202.5,207.5,207.5,127.5,135,137.5,137.5,-245,257.5,-272.5,257.5,602.5,
DQ,Matt Nguyen,M,SBD,MR-Jr,93,Raw,1999,,FL,90.3,210,220,-225,220,-170,-170,-170,,247.5,257.5,-267.5,257.5,,
1,Brandon Dudley,M,SBD,MR-Jr,105,Raw,1999,,FL,104.4,287.5,300,305,305,160,167.5,172.5,172.5,335,352.5,-365,352.5,830,
2,Grayson Beasley,M,SBD,MR-Jr,105,Raw,1998,,GA,101.7,-277.5,277.5,290,290,185,192.5,-195,192.5,325,340,-352.5,340,822.5,
3,Brendan Todd,M,SBD,MR-Jr,105,Raw,1999,,NJ,101.2,290,305,-320,305,195,205,-215.5,205,290,310,-327.5,310,820,
4,Paul Harayo,M,SBD,MR-Jr,105,Raw,2000,,IL,104.5,300,310,320,320,167.5,-177.5,177.5,177.5,305,320,-332.5,320,817.5,
5,Arthur French,M,SBD,MR-Jr,105,Raw,2000,,SD,105,277.5,290,295,295,170,177.5,-182.5,177.5,332.5,345,-352.5,345,817.5,
6,Devin Williams #1,M,SBD,MR-Jr,105,Raw,1998,,IN,104.2,-255,260,270,270,202.5,-215.5,-215.5,202.5,300,315,325,325,797.5,
7,Kevin Nguyen #16,M,SBD,MR-Jr,105,Raw,1999,,TX,105,275,290,297.5,297.5,185,190,195,195,275,300,-332.5,300,792.5,
8,Matthew Weisberg,M,SBD,MR-Jr,105,Raw,1999,Midland University,PA,99.9,272.5,285,-295,285,165,175,-182.5,175,295,307.5,315,315,775,
9,Carter Welch,M,SBD,MR-Jr,105,Raw,2000,Midland University,WI,102.8,275,-280,280,280,160,167.5,175,175,280,305,315,315,770,
10,James Cole #1,M,SBD,MR-Jr,105,Raw,1998,,PA,103,-280,290,-302.5,290,190,200,205,205,265,-277.5,-277.5,265,760,
11,Robert Londono,M,SBD,MR-Jr,105,Raw,2000,UW - Madison,IL,102.6,265,277.5,287.5,287.5,155,162.5,167.5,167.5,275,287.5,302.5,302.5,757.5,
12,Tyler Wilson #7,M,SBD,MR-Jr,105,Raw,2000,,KS,103.5,250,262.5,270,270,167.5,177.5,,177.5,292.5,310,-322.5,310,757.5,
13,Andrew Thullesen,M,SBD,MR-Jr,105,Raw,1998,Missouri Valley Vikings,MO,98.4,240,252.5,,252.5,145,155,-160,155,-272.5,285,-302.5,285,692.5,
14,John Alimo,M,SBD,MR-Jr,105,Raw,1998,,NY,104,227.5,-237.5,245,245,160,162.5,167.5,167.5,257.5,275,-290,275,687.5,
15,David Garza,M,SBD,MR-Jr,105,Raw,1998,,TX,101.6,257.5,272.5,285,285,122.5,130,-137.5,130,-247.5,247.5,255,255,670,
16,Juan Gomez,M,SBD,MR-Jr,105,Raw,1998,,TX,101.8,205,220,227.5,227.5,160,-172.5,-172.5,160,250,265,272.5,272.5,660,
17,Baxter Self,M,SBD,MR-Jr,105,Raw,2000,,KS,104.8,240,245,-257.5,245,170,-177.5,-177.5,170,227.5,237.5,245,245,660,
18,Aaron Veselak,M,SBD,MR-Jr,105,Raw,1998,,OK,97.7,212.5,227.5,242.5,242.5,125,137.5,145,145,247.5,262.5,-272.5,262.5,650,
19,Jakin Buckalew,M,SBD,MR-Jr,105,Raw,2000,,GA,97.6,247.5,-262.5,-262.5,247.5,-125,125,-130,125,260,275,-280,275,647.5,
20,Brandon Blose,M,SBD,MR-Jr,105,Raw,1999,,PA,102.5,220,230,237.5,237.5,137.5,145,-152.5,145,245,252.5,262.5,262.5,645,
21,Caleb Gibson,M,SBD,MR-Jr,105,Raw,2000,,PA,103,-230,230,245,245,140,145,150,150,235,250,-260,250,645,
22,Tanner Rowe,M,SBD,MR-Jr,105,Raw,2000,,NE,103,205,215,227.5,227.5,125,135,140,140,255,265,275,275,642.5,
23,Jaylan Ferguson,M,SBD,MR-Jr,105,Raw,2000,,SC,100.9,220,227.5,232.5,232.5,125,132.5,135,135,250,260,-272.5,260,627.5,
24,Zachary Whitley,M,SBD,MR-Jr,105,Raw,1998,,TX,93.9,210,220,230,230,140,145,150,150,230,240,-252.5,240,620,
25,Gunther Kroth,M,SBD,MR-Jr,105,Raw,2000,,NY,101.9,205,215,220,220,115,-117.5,-117.5,115,250,265,275,275,610,
26,Jacob Honig,M,SBD,MR-Jr,105,Raw,1999,,CT,94.6,190,207.5,217.5,217.5,120,130,-137.5,130,220,-240,252.5,252.5,600,
27,Eston Epton,M,SBD,MR-Jr,105,Raw,2000,,TX,96.7,182.5,-200,,182.5,142.5,157.5,167.5,167.5,227.5,242.5,-255,242.5,592.5,
28,Alvaro Nava,M,SBD,MR-Jr,105,Raw,1997,,FL,101.1,177.5,187.5,195,195,140,147.5,-150,147.5,220,235,250,250,592.5,
29,Hayden Lecius,M,SBD,MR-Jr,105,Raw,1999,,FL,101.5,217.5,222.5,230,230,125,132.5,-137.5,132.5,215,222.5,-227.5,222.5,585,
30,Chase LeBlanc,M,SBD,MR-Jr,105,Raw,1999,McKendree University Powerlifting,IL,102.4,192.5,202.5,207.5,207.5,145,-152.5,-152.5,145,217.5,230,-237.5,230,582.5,
31,Jerimiyah Overton,M,SBD,MR-Jr,105,Raw,2000,,LA,104.6,227.5,240,-255,240,157.5,-167.5,-167.5,157.5,157.5,170,185,185,582.5,
32,Joseph Frengel,M,SBD,MR-Jr,105,Raw,1997,,PA,99.8,215,-227.5,-227.5,215,120,132.5,-140,132.5,215,232.5,-250,232.5,580,
33,Jacob Blevins,M,SBD,MR-Jr,105,Raw,1998,,GA,103.1,175,187.5,-192.5,187.5,150,-157.5,-157.5,150,220,240,-245,240,577.5,
34,John Piekut,M,SBD,MR-Jr,105,Raw,1999,,PA,94,175,187.5,200,200,130,145,155,155,185,200,-220,200,555,
35,Thomas Kelleher,M,SBD,MR-Jr,105,Raw,1999,,RI,102.5,167.5,175,180,180,132.5,145,-147.5,145,215,230,-237.5,230,555,
36,Michael Lafer,M,SBD,MR-Jr,105,Raw,2000,Arizona State Powerlifting,AZ,102.8,227.5,235,-245,235,25,,,25,215,230,-235,230,490,
37,Rakip Alimi,M,SBD,MR-Jr,105,Raw,1998,UW - Madison,WI,104.2,25,,,25,187.5,197.5,-208,197.5,75,,,75,297.5,
DQ,Ryan Robertson,M,SBD,MR-Jr,105,Raw,2001,,NY,97,257.5,-270,-280,257.5,150,160,162.5,162.5,-1,,,,,
1,Isaac Whistler,M,SBD,MR-Jr,120,Raw,1999,,PA,119.9,292.5,-307.5,320,320,185,197.5,205,205,297.5,315,330,330,855,
2,Will Sepe,M,SBD,MR-Jr,120,Raw,2001,,CA,119.1,265,275,280,280,185,192.5,197.5,197.5,250,262.5,272.5,272.5,750,
1,Tucker Richey,M,SBD,MR-Jr,120+,Raw,2000,,KS,137.6,285,302.5,320,320,175,185,-192.5,185,260,280,-282.5,280,785,
2,Andres Soto,M,SBD,MR-Jr,120+,Raw,1998,,TX,140.9,-300,300,317.5,317.5,160,-167.5,,160,260,275,-287.5,275,752.5,
3,Charleston Stephens,M,SBD,MR-Jr,120+,Raw,1999,,TN,152.8,272.5,287.5,-300,287.5,170,180,-185,180,260,-277.5,-287.5,260,727.5,
1,Jun Bradley Cadelinia,M,SBD,MR-O,93,Raw,1995,,CA,93,227.5,240,250,250,150,160,167.5,167.5,260,277.5,287.5,287.5,705,
2,Jaron Yamane,M,SBD,MR-O,93,Raw,1996,,HI,91.7,200,215,225,225,162.5,172.5,177.5,177.5,227.5,245,-260,245,647.5,
1,Andrew Castillo,M,SBD,MR-O,105,Raw,1995,Arizona State Powerlifting,AZ,103.3,245,262.5,-267.5,262.5,127.5,137.5,142.5,142.5,240,255,265,265,670,
2,Kevin Bowles,M,SBD,MR-O,105,Raw,1996,,FL,101.3,205,-230,232.5,232.5,142.5,152.5,160,160,210,222.5,237.5,237.5,630,
3,John Kalianov,M,SBD,MR-O,105,Raw,1997,Arizona State Powerlifting,AZ,102.1,195,205,-207.5,205,130,-135,-135,130,240,-247.5,,240,575,
DQ,Austin Banks-Wilson,M,SBD,MR-O,105,Raw,1995,,TX,104.1,210,230,240,240,165,175,-177.5,175,-225,-225,-225,,,
1,Gavin King,M,SBD,MR-T3,93,Raw,2001,Midland University,IA,89.2,245,-255,255,255,145,155,160,160,-280,292.5,305,305,720,
2,Zachary Arnold,M,SBD,MR-T3,93,Raw,2001,,OH,91.5,265,280,-292.5,280,137.5,145,150,150,255,270,-275,270,700,
3,Kyle Duncan,M,SBD,MR-T3,93,Raw,2001,,NC,93,-240,252.5,-265,252.5,145,150,155,155,245,260,275,275,682.5,
4,Jarrett Nowak,M,SBD,MR-T3,93,Raw,2002,The Ohio State University,OH,89.8,210,222.5,227.5,227.5,125,132.5,-137.5,132.5,240,250,260,260,620,
1,Sean Mills #1,M,SBD,MR-T3,105,Raw,2001,,PA,104.1,295,310.5,318,318,177.5,182.5,185,185,305,320,325,325,828,
2,Grant Ivarson,M,SBD,MR-T3,105,Raw,2002,UW - Madison,WI,103.9,290,-305,-305,290,185,190,195,195,295,307.5,315,315,800,
3,Johnny Eriquezzo,M,SBD,MR-T3,105,Raw,2001,,MS,102.6,250,262.5,-270,262.5,157.5,162.5,167.5,167.5,230,245,255,255,685,
4,Leroy Bolden,M,SBD,MR-T3,105,Raw,2001,,KS,95.4,235,245,250,250,145,152.5,157.5,157.5,260,270,-280,270,677.5,
5,Brady Fishpaw,M,SBD,MR-T3,105,Raw,2002,The Ohio State University,OH,102.4,232.5,245,252.5,252.5,137.5,145,150,150,232.5,247.5,260,260,662.5,
6,Ricky Gomez #1,M,SBD,MR-T3,105,Raw,2001,,PA,101.4,235,-245,245,245,157.5,165,-170,165,250,-265,-265,250,660,
7,Ryan Stephens,M,SBD,MR-T3,105,Raw,2001,,OK,101.3,230,242.5,260,260,125,132.5,140,140,240,-257.5,-265,240,640,
8,Pirro Prifti,M,SBD,MR-T3,105,Raw,2002,,PA,99.8,-202.5,215,227.5,227.5,130,137.5,-142.5,137.5,252.5,267.5,-277.5,267.5,632.5,
9,James Petritz,M,SBD,MR-T3,105,Raw,2001,,CT,103.6,215,232.5,245,245,132.5,145,150,150,215,232.5,-242.5,232.5,627.5,
10,Bailey Mckenzie,M,SBD,MR-T3,105,Raw,2001,,TX,102.96,222.5,237.5,-245,237.5,110,120,127.5,127.5,215,232.5,250,250,615,
11,Carl McKenzie,M,SBD,MR-T3,105,Raw,2002,The Ohio State University,OH,94.3,182.5,192.5,202.5,202.5,120,127.5,-132.5,127.5,227.5,242.5,257.5,257.5,587.5,
