Place,Name,Sex,BirthDate,Age,Country,State,Equipment,Division,BodyweightKg,WeightClassKg,Squat1Kg,Squat2Kg,Squat3Kg,Best3SquatKg,Bench1Kg,Bench2Kg,Bench3Kg,Best3BenchKg,Deadlift1Kg,Deadlift2Kg,Deadlift3Kg,Deadlift4Kg,Best3DeadliftKg,TotalKg,Event
1,Tammy Ranney,F,1976-08-13,45,USA,AZ,Raw,M45-49,69.9,75,82.5,92.5,-100,92.5,67.5,72.5,-77.5,72.5,97.5,105,112.5,,112.5,277.5,SBD
1,Valerie Ogden,F,1996-10-04,25,USA,AZ,Raw,Open,45.5,48,70,75,-80,75,37.5,-42.5,-42.5,37.5,87.5,95,100,,100,212.5,SBD
1,Jaclynn Botello,F,2005-10-07,16,USA,AZ,Raw,Open,59.1,60,107.5,-117.5,130,130,50,57.5,62.5,62.5,107.5,117.5,132.5,,132.5,325,SBD
1,Carly Thomas,F,1982-11-20,39,USA,AZ,Raw,Open,69.2,75,115,125,-137.5,125,80,85,-92.5,85,140,150,155,,155,365,SBD
1,Taylor Mansoor,F,1996-05-25,25,USA,AZ,Raw,Open,101.4,110,132.5,-142.5,142.5,142.5,65,72.5,-80,72.5,132.5,142.5,-147.5,,142.5,357.5,SBD
1,Jaclynn Botello,F,2005-10-07,16,USA,AZ,Raw,J14-16,59.1,60,107.5,-117.5,130,130,50,57.5,62.5,62.5,107.5,117.5,132.5,,132.5,325,SBD
1,Josh Mecham,M,1999-11-17,22,USA,AZ,Raw,J20-23,89.9,90,210,220,-232.5,220,147.5,162.5,172.5,172.5,245,-275,-290,,245,637.5,SBD
1,Jared Stone,M,1980-09-16,41,USA,AZ,Raw,M40-44,107.3,110,232.5,250,262.5,262.5,152.5,167.5,-170,167.5,230,240,245,,245,675,SBD
1,Eric Ranney,M,1973-03-26,49,USA,AZ,Raw,M45-49,120.8,125,240,247.5,257.5,257.5,160,167.5,-170,167.5,262.5,275,280,,280,705,SBD
1,Drake DalMolin,M,2003-10-31,18,USA,AZ,Raw,Open,74.4,75,187.5,195,205,205,102.5,112.5,117.5,117.5,225,-240,245,,245,567.5,SBD
2,Kevin Hopkins,M,1995-04-16,27,USA,NV,Raw,Open,68.6,75,-165,165,-177.5,165,105,-115,-115,105,182.5,195,205,,205,475,SBD
1,Wyatt Christiansen,M,1997-12-17,24,USA,AZ,Raw,Open,81.7,82.5,200,212.5,220,220,110,117.5,120,120,242.5,265,275,280,275,615,SBD
2,Cody Ludwick,M,2002-02-16,20,USA,AZ,Raw,Open,79.5,82.5,162.5,170,-185,170,85,97.5,-110,97.5,202.5,215,225,,225,492.5,SBD
1,Josh Mecham,M,1999-11-17,22,USA,AZ,Raw,Open,89.9,90,210,220,-232.5,220,147.5,162.5,172.5,172.5,245,-275,-290,,245,637.5,SBD
2,Xavier Beckham,M,1993-06-28,28,USA,AZ,Raw,Open,89.3,90,190,200,212.5,212.5,125,140,-150,140,205,225,242.5,,242.5,595,SBD
3,Cody Walker,M,2002-04-05,20,USA,AZ,Raw,Open,88.5,90,192.5,200,210,210,105,110,117.5,117.5,207.5,225,242.5,,242.5,570,SBD
1,Jensen Kierulff,M,1980-08-10,41,USA,CA,Raw,Open,99.9,100,257.5,272.5,280,280,180,192.5,205,205,305,322.5,337.5,,337.5,822.5,SBD
2,Spencer Ervin,M,2002-07-11,19,USA,AZ,Raw,Open,93.8,100,137.5,150,167.5,167.5,75,85,-92.5,85,182.5,195,207.5,,207.5,460,SBD
1,Brent Johnstun,M,1992-11-26,29,USA,AZ,Raw,Open,119.1,125,245,265,280,280,165,177.5,185,185,250,-260,-260,,250,715,SBD
1,Aleksandar Loncar,M,2000-11-21,21,USA,AZ,Raw,Open,137.5,140,-260,275,282.5,282.5,195,212.5,-227.5,212.5,230,255,-272.5,,255,750,SBD
1,Drake DalMolin,M,2003-10-31,18,USA,AZ,Raw,J17-19,74.4,75,187.5,195,205,205,102.5,112.5,117.5,117.5,225,-240,245,,245,567.5,SBD
1,Spencer Ervin,M,2002-07-11,19,USA,AZ,Raw,J17-19,93.8,100,137.5,150,167.5,167.5,75,85,-92.5,85,182.5,195,207.5,,207.5,460,SBD
1,John Melone,M,1981-05-16,41,,,Wraps,M40-44,107.4,110,245,265,-275,265,167.5,182.5,190,190,245,270,275,,275,730,SBD
1,Ben Mecham,M,1973-07-30,48,USA,AZ,Wraps,M45-49,108.2,110,120,150,-170,150,-105,107.5,115,115,180,195,210,,210,475,SBD
1,John Melone,M,1981-05-16,41,,,Wraps,Open,107.4,110,245,265,-275,265,167.5,182.5,190,190,245,270,275,,275,730,SBD
